%!PS-Adobe-3.0 EPSF-3.0
%%Creator: MATLAB, The Mathworks, Inc. Version 7.9.0.529 (R2009b). Operating System: Darwin 11.4.2 Darwin Kernel Version 11.4.2: Thu Aug 23 16:25:48 PDT 2012; root:xnu-1699.32.7~1/RELEASE_X86_64 x86_64.
%%Title: /Users/kylehe/Documents/Projects/ardrone_side_project/results/Matlab/ardrone_scale_estimation/ScaleEstSim/scale_comparision1.eps
%%CreationDate: 12/09/2012  22:59:52
%%DocumentNeededFonts: Helvetica
%%DocumentProcessColors: Cyan Magenta Yellow Black
%%LanguageLevel: 2
%%Pages: 1
%%BoundingBox:    73   252   521   589
%%EndComments

%%BeginProlog
% MathWorks dictionary
/MathWorks 160 dict begin
% definition operators
/bdef {bind def} bind def
/ldef {load def} bind def
/xdef {exch def} bdef
/xstore {exch store} bdef
% operator abbreviations
/c  /clip ldef
/cc /concat ldef
/cp /closepath ldef
/gr /grestore ldef
/gs /gsave ldef
/mt /moveto ldef
/np /newpath ldef
/cm /currentmatrix ldef
/sm /setmatrix ldef
/rm /rmoveto ldef
/rl /rlineto ldef
/s {show newpath} bdef
/sc {setcmykcolor} bdef
/sr /setrgbcolor ldef
/sg /setgray ldef
/w /setlinewidth ldef
/j /setlinejoin ldef
/cap /setlinecap ldef
/rc {rectclip} bdef
/rf {rectfill} bdef
% page state control
/pgsv () def
/bpage {/pgsv save def} bdef
/epage {pgsv restore} bdef
/bplot /gsave ldef
/eplot {stroke grestore} bdef
% orientation switch
/portraitMode 0 def /landscapeMode 1 def /rotateMode 2 def
% coordinate system mappings
/dpi2point 0 def
% font control
/FontSize 0 def
/FMS {/FontSize xstore findfont [FontSize 0 0 FontSize neg 0 0]
  makefont setfont} bdef
/reencode {exch dup where {pop load} {pop StandardEncoding} ifelse
  exch dup 3 1 roll findfont dup length dict begin
  { 1 index /FID ne {def}{pop pop} ifelse } forall
  /Encoding exch def currentdict end definefont pop} bdef
/isroman {findfont /CharStrings get /Agrave known} bdef
/FMSR {3 1 roll 1 index dup isroman {reencode} {pop pop} ifelse
  exch FMS} bdef
/csm {1 dpi2point div -1 dpi2point div scale neg translate
 dup landscapeMode eq {pop -90 rotate}
  {rotateMode eq {90 rotate} if} ifelse} bdef
% line types: solid, dotted, dashed, dotdash
/SO { [] 0 setdash } bdef
/DO { [.5 dpi2point mul 4 dpi2point mul] 0 setdash } bdef
/DA { [6 dpi2point mul] 0 setdash } bdef
/DD { [.5 dpi2point mul 4 dpi2point mul 6 dpi2point mul 4
  dpi2point mul] 0 setdash } bdef
% macros for lines and objects
/L {lineto stroke} bdef
/MP {3 1 roll moveto 1 sub {rlineto} repeat} bdef
/AP {{rlineto} repeat} bdef
/PDlw -1 def
/W {/PDlw currentlinewidth def setlinewidth} def
/PP {closepath eofill} bdef
/DP {closepath stroke} bdef
/MR {4 -2 roll moveto dup  0 exch rlineto exch 0 rlineto
  neg 0 exch rlineto closepath} bdef
/FR {MR stroke} bdef
/PR {MR fill} bdef
/L1i {{currentfile picstr readhexstring pop} image} bdef
/tMatrix matrix def
/MakeOval {newpath tMatrix currentmatrix pop translate scale
0 0 1 0 360 arc tMatrix setmatrix} bdef
/FO {MakeOval stroke} bdef
/PO {MakeOval fill} bdef
/PD {currentlinewidth 2 div 0 360 arc fill
   PDlw -1 eq not {PDlw w /PDlw -1 def} if} def
/FA {newpath tMatrix currentmatrix pop translate scale
  0 0 1 5 -2 roll arc tMatrix setmatrix stroke} bdef
/PA {newpath tMatrix currentmatrix pop	translate 0 0 moveto scale
  0 0 1 5 -2 roll arc closepath tMatrix setmatrix fill} bdef
/FAn {newpath tMatrix currentmatrix pop translate scale
  0 0 1 5 -2 roll arcn tMatrix setmatrix stroke} bdef
/PAn {newpath tMatrix currentmatrix pop translate 0 0 moveto scale
  0 0 1 5 -2 roll arcn closepath tMatrix setmatrix fill} bdef
/vradius 0 def /hradius 0 def /lry 0 def
/lrx 0 def /uly 0 def /ulx 0 def /rad 0 def
/MRR {/vradius xdef /hradius xdef /lry xdef /lrx xdef /uly xdef
  /ulx xdef newpath tMatrix currentmatrix pop ulx hradius add uly
  vradius add translate hradius vradius scale 0 0 1 180 270 arc 
  tMatrix setmatrix lrx hradius sub uly vradius add translate
  hradius vradius scale 0 0 1 270 360 arc tMatrix setmatrix
  lrx hradius sub lry vradius sub translate hradius vradius scale
  0 0 1 0 90 arc tMatrix setmatrix ulx hradius add lry vradius sub
  translate hradius vradius scale 0 0 1 90 180 arc tMatrix setmatrix
  closepath} bdef
/FRR {MRR stroke } bdef
/PRR {MRR fill } bdef
/MlrRR {/lry xdef /lrx xdef /uly xdef /ulx xdef /rad lry uly sub 2 div def
  newpath tMatrix currentmatrix pop ulx rad add uly rad add translate
  rad rad scale 0 0 1 90 270 arc tMatrix setmatrix lrx rad sub lry rad
  sub translate rad rad scale 0 0 1 270 90 arc tMatrix setmatrix
  closepath} bdef
/FlrRR {MlrRR stroke } bdef
/PlrRR {MlrRR fill } bdef
/MtbRR {/lry xdef /lrx xdef /uly xdef /ulx xdef /rad lrx ulx sub 2 div def
  newpath tMatrix currentmatrix pop ulx rad add uly rad add translate
  rad rad scale 0 0 1 180 360 arc tMatrix setmatrix lrx rad sub lry rad
  sub translate rad rad scale 0 0 1 0 180 arc tMatrix setmatrix
  closepath} bdef
/FtbRR {MtbRR stroke } bdef
/PtbRR {MtbRR fill } bdef
/stri 6 array def /dtri 6 array def
/smat 6 array def /dmat 6 array def
/tmat1 6 array def /tmat2 6 array def /dif 3 array def
/asub {/ind2 exch def /ind1 exch def dup dup
  ind1 get exch ind2 get sub exch } bdef
/tri_to_matrix {
  2 0 asub 3 1 asub 4 0 asub 5 1 asub
  dup 0 get exch 1 get 7 -1 roll astore } bdef
/compute_transform {
  dmat dtri tri_to_matrix tmat1 invertmatrix 
  smat stri tri_to_matrix tmat2 concatmatrix } bdef
/ds {stri astore pop} bdef
/dt {dtri astore pop} bdef
/db {2 copy /cols xdef /rows xdef mul dup 3 mul string
  currentfile 
  3 index 0 eq {/ASCIIHexDecode filter}
  {/ASCII85Decode filter 3 index 2 eq {/RunLengthDecode filter} if }
  ifelse exch readstring pop
  dup 0 3 index getinterval /rbmap xdef
  dup 2 index dup getinterval /gbmap xdef
  1 index dup 2 mul exch getinterval /bbmap xdef pop pop}bdef
/it {gs np dtri aload pop moveto lineto lineto cp c
  cols rows 8 compute_transform 
  rbmap gbmap bbmap true 3 colorimage gr}bdef
/il {newpath moveto lineto stroke}bdef
currentdict end def
%%EndProlog

%%BeginSetup
MathWorks begin

0 cap

end
%%EndSetup

%%Page: 1 1
%%BeginPageSetup
%%PageBoundingBox:    73   252   521   589
MathWorks begin
bpage
%%EndPageSetup

%%BeginObject: obj1
bplot

/dpi2point 12 def
portraitMode 0876 7068 csm

    0     0  5376  4034 rc
85 dict begin %Colortable dictionary
/c0 { 0.000000 0.000000 0.000000 sr} bdef
/c1 { 1.000000 1.000000 1.000000 sr} bdef
/c2 { 0.900000 0.000000 0.000000 sr} bdef
/c3 { 0.000000 0.820000 0.000000 sr} bdef
/c4 { 0.000000 0.000000 0.800000 sr} bdef
/c5 { 0.910000 0.820000 0.320000 sr} bdef
/c6 { 1.000000 0.260000 0.820000 sr} bdef
/c7 { 0.000000 0.820000 0.820000 sr} bdef
c0
1 j
1 sg
   0    0 5377 4035 rf
6 w
0 1372 1799 0 0 -1372 699 1675 4 MP
PP
-1799 0 0 1372 1799 0 0 -1372 699 1675 5 MP stroke
4 w
DO
SO
6 w
0 sg
 699 1675 mt 2498 1675 L
 699  303 mt 2498  303 L
 699 1675 mt  699  303 L
2498 1675 mt 2498  303 L
 699 1675 mt 2498 1675 L
 699 1675 mt  699  303 L
 699 1675 mt  699 1657 L
 699  303 mt  699  320 L
%%IncludeResource: font Helvetica
/Helvetica /ISOLatin1Encoding 120 FMSR

 666 1820 mt 
(0) s
1298 1675 mt 1298 1657 L
1298  303 mt 1298  320 L
1265 1820 mt 
(1) s
1898 1675 mt 1898 1657 L
1898  303 mt 1898  320 L
1865 1820 mt 
(2) s
2498 1675 mt 2498 1657 L
2498  303 mt 2498  320 L
2465 1820 mt 
(3) s
2228 2022 mt 
(x 10) s
%%IncludeResource: font Helvetica
/Helvetica /ISOLatin1Encoding 80 FMSR

2454 1948 mt 
(4) s
 699 1675 mt  716 1675 L
2498 1675 mt 2480 1675 L
%%IncludeResource: font Helvetica
/Helvetica /ISOLatin1Encoding 120 FMSR

 498 1719 mt 
(0.5) s
 699  989 mt  716  989 L
2498  989 mt 2480  989 L
 598 1033 mt 
(1) s
 699  303 mt  716  303 L
2498  303 mt 2480  303 L
 498  347 mt 
(1.5) s
 699 1675 mt 2498 1675 L
 699  303 mt 2498  303 L
 699 1675 mt  699  303 L
2498 1675 mt 2498  303 L
gs 699 303 1800 1373 rc
/c8 { 0.000000 0.000000 1.000000 sr} bdef
c8
1 0 0 6 1 0 1 0 0 4 1 0 1 -1 0 16 
1 0 0 -10 1 0 0 2 2 9 1 -1 0 -3 1 0 
1 -1 0 5 1 0 1 -1 1 0 0 7 1 0 1 0 
0 -6 1 0 1 -1 0 4 1 -1 1 1 0 -3 1 0 
0 -2 1 0 0 2 1 0 1 -1 0 3 1 0 0 -3 
1 0 0 -4 1 0 1 0 1 0 0 -3 1 0 0 2 
1 0 0 2 1 0 0 -4 1 0 0 2 1 0 0 -3 
1 0 0 5 1 0 1 0 0 3 1 0 1 -1 0 -2 
1 0 0 -2 1 8 0 -3 1 0 1 1 1 0 1 0 
0 6 1 0 0 -7 0 7 1 0 0 -4 1 0 1 0 
0 3 1 -2 1 0 0 -5 0 2 1 0 0 3 1 0 
0 -5 1 0 1 1 0 -7 1 0 0 -4 1 0 1 1 
1 -1 0 -5 0 4 1 0 1 0 0 -7 1 -2 1 -1 
0 -3 1 0 0 -2 1 0 1 1 0 -4 1 0 0 -4 
1 0 1 1 0 3 1 0 0 -4 1 0 0 4 1 0 
0 -4 1 0 0 4 1 0 1 1 0 2 1 0 1 4 
1 1 1 1 0 3 1 0 0 7 1 0 0 -3 1 0 
1 0 0 2 1 0 0 -3 1 0 1 0 0 3 1 0 
1 1 1 1 0 3 1 0 0 3 1 0 0 5 1 0 
0 2 1 0 0 -2 1 0 0 2 1 0 0 3 1 0 
1 0 0 -3 1 0 0 5 1 0 1 0 0 4 1 0 
1 0 0 -4 1 0 0 3 1 4 0 2 1 0 0 -2 
1 0 1 0 0 2 1 0 1 0 0 -2 1 0 0 3 
1 0 0 -7 1 0 1 0 0 -3 1 0 1 -1 1 1 
0 -2 1 0 0 -5 1 0 0 -2 1 0 0 -2 1 0 
0 -4 1 -4 0 -3 1 0 1 0 1 0 0 -5 1 0 
0 -2 1 0 0 2 1 0 0 -2 1 0 1 0 0 -2 
1 0 1 0 0 7 1 0 0 -6 1 0 0 7 1 0 
0 -7 1 0 0 4 1 0 0 2 1 0 0 -3 1 0 
0 3 1 0 1 1 1 -1 1 1 1 0 0 -1 0 1 
1 3 1 0 0 -2 0 2 1 0 0 -2 1 0 0 3 
1 7 1 -1 1 1 0 -4 1 3 0 -5 0 3 1 0 
1 0 0 2 1 0 0 9 1 0 0 -7 0 3 1 0 
0 -4 1 0 1 1 0 -2 1 0 0 -3 1 0 0 4 
1 0 0 -3 1 -1 1 1 0 -3 1 0 0 5 1 1 
1 0 0 -3 1 0 0 3 1 -3 0 3 1 0 1 0 
1 1 0 -2 1 0 0 4 1 0 0 -2 1 0 0 3 
1 0 0 -4 1 0 2138 1256 300 MP stroke
0 3 1 0 0 -3 1 0 0 3 1 0 1 0 1 1 
0 3 0 -6 1 0 0 3 1 0 1 -1 0 -3 1 0 
0 3 1 0 0 4 1 0 0 -6 1 0 1 -1 1 -1 
0 -5 1 0 0 2 1 0 0 3 1 0 0 -5 1 0 
0 2 1 0 1 1 0 2 1 0 0 2 1 0 1 0 
0 -2 1 0 1 0 0 4 1 0 0 -2 1 0 1 -1 
0 -6 1 0 0 5 1 0 0 -2 1 0 0 3 1 0 
0 -4 1 0 0 -3 1 0 1 -1 1 1 0 10 1 0 
0 -10 1 0 0 6 1 -6 1 1 0 -2 1 0 1 1 
0 -4 1 0 1 0 1 -1 1 0 0 -2 1 0 0 3 
1 0 1 1 0 2 1 0 0 -3 1 0 0 -3 1 0 
0 3 1 0 0 -3 1 0 0 2 1 0 1 0 1 -11 
1 0 0 -3 1 0 0 -6 1 -1 1 0 0 -3 1 0 
0 -2 1 0 1 0 0 5 1 0 0 -4 1 0 0 3 
1 8 0 -7 1 0 0 11 1 0 0 -4 1 0 0 8 
1 0 1 11 1 0 1 0 1 1 0 10 1 0 0 -10 
1 0 1 0 1 0 1 0 0 2 1 0 1 0 0 -10 
1 0 1 -1 0 -3 1 0 1 0 1 0 1 -1 0 4 
1 0 0 -4 1 0 0 -6 1 0 1 0 1 7 1 0 
1 0 0 -3 1 0 0 3 1 0 0 3 1 0 0 -3 
1 4 0 6 1 0 1 1 0 8 1 0 0 2 1 0 
1 0 1 1 1 0 1 0 1 0 1 0 0 -12 1 0 
0 12 1 0 0 -19 1 0 0 5 1 0 0 -8 1 0 
1 0 0 4 1 0 0 -4 1 0 0 -9 1 1 1 1 
1 2 0 -4 1 0 1 1 0 3 1 0 1 1 0 4 
1 0 0 7 1 0 1 0 0 7 1 0 1 1 0 13 
1 0 1 1 1 1 0 9 1 0 0 -2 1 0 0 8 
1 0 0 -4 1 0 0 2 1 0 0 8 1 0 0 -6 
1 0 0 3 1 0 0 -3 1 0 0 -1 0 1 1 -4 
0 4 1 0 0 -8 1 0 0 4 1 0 0 -4 1 -1 
0 -3 1 0 1 1 1 0 0 -12 1 0 1 1 0 -4 
1 0 1 0 0 -5 1 1 1 0 1 -1 0 -3 1 0 
1 -4 1 0 0 -4 1 0 0 4 1 0 0 -6 1 -1 
1 1 0 -2 1 0 0 2 1 0 1 -1 0 -3 1 0 
0 4 1 0 0 2 1 0 0 4 1 0 1 1 0 9 
1 0 0 -6 1 0 0 6 1 0 0 -2 1 0 1 -1 
1 1 0 3 1 0 1 1 0 -2 1 0 1 0 0 -3 
1 0 0 -2 1 0 1955 1262 300 MP stroke
1 -1 1 -1 1 0 0 -2 1 0 0 -5 1 0 0 -3 
1 0 0 1 0 -1 1 3 0 -6 1 0 0 -5 1 0 
0 3 1 0 0 -2 1 0 1 0 1 0 1 0 0 2 
1 0 0 -3 1 0 0 3 1 0 0 4 1 0 0 -3 
1 0 0 -4 1 0 0 4 1 0 1 4 -1 0 2 -5 
0 4 1 0 1 1 0 3 1 0 0 -2 1 0 0 3 
1 0 0 -3 1 0 0 9 1 0 0 -6 1 0 0 4 
1 0 1 0 0 2 1 0 1 0 1 1 0 -1 0 1 
1 -3 0 2 1 0 0 2 1 0 0 -2 1 0 0 -2 
1 0 0 -2 1 0 0 -3 1 0 0 -3 1 0 0 3 
1 0 0 -3 1 0 1 -1 0 -2 1 0 0 -5 0 4 
1 0 0 -11 1 1 1 0 0 -6 1 0 0 -2 1 0 
0 2 1 0 0 -2 1 0 0 -3 1 0 1 -1 1 0 
0 3 1 0 0 9 1 0 0 2 1 0 0 3 1 0 
0 2 1 0 0 6 0 -6 1 0 0 4 1 0 0 3 
1 0 1 10 0 -4 1 0 0 4 1 0 0 1 0 -1 
1 -2 0 -4 1 0 0 7 1 0 0 -3 1 0 1 0 
1 0 1 0 0 3 1 0 1 0 1 0 1 0 1 -1 
1 1 0 3 1 0 0 -3 1 0 0 6 1 0 0 -2 
1 0 0 -3 1 0 0 9 1 0 0 -4 1 0 1 1 
0 3 1 0 0 -2 1 0 0 3 1 1 1 -1 0 4 
1 0 1 0 1 0 1 0 0 2 1 0 0 -5 1 0 
1 0 0 7 1 0 0 2 1 0 0 -9 1 0 1 0 
1 0 0 2 1 0 0 -4 1 0 0 2 1 0 0 -2 
1 0 0 -2 1 0 0 4 1 0 1 0 1 -1 1 0 
0 -4 1 0 0 3 1 0 1 1 0 -4 1 0 0 3 
0 -9 0 5 1 0 0 2 0 -7 1 0 1 0 1 -1 
0 4 1 0 0 -4 1 1 1 0 0 2 1 0 1 0 
0 -2 1 -1 0 -3 1 0 1 0 0 -4 1 0 0 3 
0 -4 1 0 0 3 1 0 0 -10 1 0 1 1 1 -1 
1 -1 0 -3 1 0 1 -1 1 0 0 2 1 0 1 -1 
-1 0 2 3 0 4 1 0 1 1 1 -1 0 -2 1 0 
0 2 1 0 1 1 1 0 0 -3 0 2 1 0 1 1 
0 -4 1 0 0 3 1 0 0 -4 1 0 1 0 1 1 
1 1 0 -2 1 0 1 1 0 -4 1 0 0 4 1 0 
1 1 1 0 1 0 0 3 1 0 1 1 0 -2 1 0 
0 4 1 0 1 1 1 0 1 0 0 6 1 0 0 -2 
0 4 1 0 1 -1 1779 1263 300 MP stroke
0 3 1 0 0 -2 1 0 0 3 1 0 0 -3 1 0 
0 -2 1 0 0 -3 1 0 1 -1 1 0 1 0 0 -2 
1 0 0 3 1 0 0 -4 1 0 1 0 1 1 0 3 
1 -3 1 0 1 0 0 3 1 0 1 -1 0 -3 1 0 
0 -4 1 0 0 -2 1 0 0 3 0 -4 1 0 0 -3 
1 0 0 -2 1 0 0 -2 1 0 1 -3 0 -5 1 0 
1 0 0 -3 1 0 0 -3 1 0 0 -1 0 1 1 2 
0 -4 1 0 0 -3 1 0 0 5 1 0 0 -5 1 1 
0 -5 1 0 1 0 1 0 1 0 0 3 1 1 1 0 
0 3 1 0 1 1 0 7 1 0 0 3 1 0 0 -2 
1 6 1 -2 0 6 1 0 0 23 1 0 1 0 0 3 
1 0 0 8 1 0 0 4 1 0 1 -1 0 4 1 0 
0 -4 1 0 1 -1 1 1 0 -6 1 0 1 0 1 0 
0 -4 1 0 0 -2 1 0 0 -2 1 0 0 -3 1 0 
1 -1 1 -1 1 0 0 -4 1 0 0 2 1 0 1 -1 
0 -3 1 0 1 -1 0 3 1 0 0 5 1 0 0 -5 
1 0 0 4 1 1 0 4 1 0 0 -4 1 0 0 3 
1 0 0 -2 1 0 0 7 1 0 0 -2 1 0 0 -2 
1 0 0 2 1 0 1 1 1 1 0 2 1 0 0 2 
1 0 1 0 0 -6 1 0 0 6 1 0 1 -1 0 -4 
1 0 0 -3 0 2 1 0 0 -5 1 0 1 -1 0 -7 
1 0 0 2 1 0 1 1 0 -4 1 0 0 -8 1 0 
0 4 1 0 0 -2 1 0 1 -1 1 0 0 5 1 0 
0 -12 1 0 0 4 1 0 1 0 0 -2 1 0 1 1 
0 3 1 0 0 -3 1 0 0 7 1 0 0 4 1 0 
0 -3 1 0 0 8 1 0 0 -4 1 0 0 10 1 0 
1 0 0 8 1 0 0 -7 1 0 0 2 1 0 1 1 
1 -1 1 2 1 -1 1 1 0 -4 1 0 1 0 0 7 
1 0 0 -5 1 0 1 1 0 3 1 0 1 0 0 2 
1 -1 1 0 1 0 1 1 1 -1 1 1 0 -2 1 0 
0 5 1 0 0 4 1 0 0 -2 1 0 1 0 1 0 
0 -6 1 0 1 1 0 2 1 0 0 4 1 0 0 5 
1 -5 0 8 1 0 0 -9 1 0 0 -5 1 0 0 3 
1 0 0 -4 1 0 0 -3 1 0 1 0 0 2 1 1 
0 -3 1 0 0 -2 1 0 0 2 1 0 1 0 0 2 
1 0 1 0 1 -2 0 3 1 0 0 1 0 -1 1 6 
1 0 1 1 0 -6 1 0 0 2 1 0 0 -3 1 0 
1 -1 0 -2 1 0 1601 1255 300 MP stroke
0 -4 1 -1 0 -2 0 3 1 0 0 -5 1 0 0 -2 
1 0 0 3 1 1 0 -5 1 0 1 0 0 4 1 0 
0 -4 1 0 0 7 0 -4 1 0 0 -2 1 0 1 -1 
0 5 1 0 1 -1 0 -4 1 0 0 -3 1 0 0 -3 
1 0 0 3 1 0 1 0 1 0 0 -3 1 0 1 -1 
0 -3 1 0 0 2 1 0 0 -4 1 0 0 -6 1 0 
0 3 1 0 0 -6 1 0 0 3 1 0 0 -3 1 0 
0 5 1 0 1 1 -1 0 2 -4 0 -3 1 0 1 1 
1 0 0 7 1 0 1 -1 0 5 1 0 0 2 1 0 
0 2 1 0 0 7 1 0 0 -5 1 0 0 9 1 0 
0 3 1 0 1 0 0 10 1 0 0 -6 1 0 0 10 
1 0 0 -8 1 0 0 4 1 0 0 -2 1 0 0 2 
1 7 0 -4 1 0 1 0 1 0 0 -2 1 0 1 0 
0 3 1 0 0 -3 1 0 0 -3 1 0 0 -4 1 0 
0 -4 1 0 0 3 1 0 0 -6 1 -1 1 -1 0 -6 
1 0 0 -3 1 -1 0 -4 1 0 0 -1 0 1 1 -5 
1 0 1 1 0 -6 1 0 0 10 1 0 0 -7 1 0 
0 6 1 0 0 -7 1 3 0 5 1 0 1 0 0 3 
1 0 0 5 0 -3 1 0 0 2 1 0 0 4 1 0 
0 3 1 0 0 -3 0 3 1 0 0 -4 1 0 1 1 
1 0 0 -6 1 0 0 6 1 0 1 1 1 -1 1 0 
1 1 1 -1 1 -1 0 6 1 0 0 -2 1 0 1 1 
0 7 1 0 0 -6 1 0 1 0 0 6 1 0 0 5 
1 0 0 -4 1 0 1 0 1 0 0 -2 1 0 0 4 
1 -3 1 -3 0 -3 1 0 1 0 1 -1 1 0 0 -3 
1 0 0 -7 1 0 0 7 0 -11 1 0 1 0 0 -2 
1 0 0 -2 1 0 0 -2 1 0 0 -6 1 0 0 6 
1 0 0 -3 1 0 1 0 0 -2 1 0 0 3 1 0 
0 -3 1 0 0 9 1 0 0 -4 1 0 0 2 1 0 
0 7 1 1 0 3 1 0 0 6 1 0 1 1 0 6 
1 4 0 2 1 0 0 5 1 0 0 2 1 0 1 0 
0 4 1 0 0 -4 0 3 1 0 1 0 0 -4 1 0 
1 -1 0 -6 1 0 0 -3 1 0 0 -8 1 0 0 -3 
1 0 0 -2 1 0 0 -6 1 0 0 -3 1 0 1 0 
0 2 0 -7 1 0 0 5 1 0 0 -2 0 5 1 0 
0 -3 1 0 0 -2 1 0 0 4 1 0 0 -2 1 0 
0 2 1 0 1 0 1 0 0 7 1 0 0 -3 1 1 
0 7 1 0 0 -4 1435 1267 300 MP stroke
1 0 0 4 1 0 1 0 1 0 1 1 0 5 0 -3 
1 0 0 -3 1 0 1 0 1 0 0 4 1 0 1 2 
1 -6 0 3 1 0 0 5 1 0 0 -5 1 0 1 1 
0 -3 1 0 1 0 0 3 1 0 0 -5 1 0 0 -2 
1 0 1 0 1 0 1 -1 0 4 1 0 1 1 0 5 
1 0 1 0 0 -2 1 0 0 3 1 0 1 1 1 0 
0 3 1 0 0 3 2 5 0 2 1 0 0 5 1 0 
1 0 1 0 1 0 1 -1 0 -2 1 0 0 -5 1 0 
1 1 0 -4 1 -1 0 -3 1 0 0 -3 1 0 0 -1 
0 1 1 -4 0 2 1 0 0 -2 1 0 0 -5 1 0 
0 1 0 -1 1 4 0 -3 1 0 1 0 1 1 0 -2 
1 0 0 1 0 -1 1 -2 0 -2 1 0 0 -2 1 0 
0 3 1 0 1 0 0 -6 0 3 1 0 0 -7 1 0 
1 -1 1 1 1 -1 1 -1 0 2 1 -5 1 -1 0 2 
1 0 0 2 1 0 0 -4 1 0 1 0 1 0 1 1 
0 3 1 0 0 -3 1 0 0 -3 1 0 0 4 1 0 
0 -2 1 4 0 -3 1 0 0 3 1 0 1 0 0 4 
1 0 1 0 1 0 0 4 1 0 0 11 1 0 0 -7 
1 0 1 1 0 4 1 0 1 0 0 6 1 0 0 -4 
1 0 0 4 1 0 1 -1 0 2 1 -1 1 -1 1 1 
1 0 1 -1 0 -3 1 0 0 -2 1 5 0 -5 1 0 
0 3 1 0 0 4 1 0 0 -2 1 0 1 0 0 -5 
0 3 1 0 1 -1 0 -3 1 0 0 -8 1 0 0 7 
1 0 0 -7 1 0 0 -3 1 0 0 -3 1 0 0 3 
1 0 1 1 0 2 1 0 0 -7 0 3 1 0 1 1 
1 0 0 -1 0 1 1 4 0 2 1 0 0 -3 1 0 
0 3 1 0 0 -3 1 0 0 4 1 0 0 4 1 0 
0 -4 1 0 0 8 1 0 0 -3 1 0 0 2 1 0 
0 0 2 5 1 0 0 2 1 0 0 -3 0 3 1 0 
1 0 1 0 0 -4 0 4 1 0 1 0 1 0 0 2 
1 0 0 -5 1 0 1 1 0 2 1 0 1 0 0 2 
1 0 0 -1 0 1 1 3 0 -5 1 0 0 4 1 0 
0 -2 1 0 1 -1 1 1 1 -1 -1 0 2 -4 1 1 
1 0 1 0 0 3 1 0 0 -5 1 0 1 1 0 -3 
1 0 0 2 1 0 0 5 1 0 0 -4 1 0 1 -3 
0 4 1 0 0 -2 1 0 0 2 1 0 1 0 1 0 
0 2 1 0 0 -2 1 0 0 -4 1 0 0 4 0 -4 
1 0 0 3 1 0 1257 1256 300 MP stroke
1 1 0 -8 1 -1 1 0 0 -2 0 3 1 0 0 -5 
1 0 0 -2 1 0 1 -1 1 1 0 3 0 -7 1 0 
1 0 0 3 1 0 0 -4 1 0 1 1 0 -3 1 0 
0 3 1 0 0 -4 1 0 1 -1 0 5 1 0 0 -5 
1 1 0 1 0 -1 1 4 0 -4 1 1 0 6 1 0 
1 0 0 -4 1 0 0 4 1 1 0 2 1 0 0 4 
1 0 1 1 1 -1 0 2 1 0 0 -2 1 0 0 4 
1 0 0 4 1 0 1 0 0 -4 1 0 0 3 1 0 
1 0 0 2 1 0 0 10 1 0 0 -3 1 0 0 6 
1 0 0 -6 1 0 0 -9 1 0 0 -2 1 -4 0 6 
1 0 0 -20 1 0 0 -2 1 0 0 -2 0 3 1 0 
0 -4 1 1 0 -9 1 0 1 0 1 0 0 -7 1 0 
0 5 1 0 0 -4 1 0 0 2 1 0 0 8 1 0 
0 4 1 0 0 -6 1 0 0 9 1 0 0 -2 1 0 
0 18 1 1 0 2 1 0 1 0 1 1 0 24 1 0 
0 -5 1 0 0 6 1 0 0 -4 1 0 0 7 0 -2 
1 0 0 3 1 -1 0 1 0 -1 1 -7 0 -3 1 1 
1 -1 1 0 0 -19 1 -2 0 -5 1 0 0 -4 1 0 
0 7 1 0 0 -15 1 0 0 -4 1 0 0 -5 0 2 
1 0 0 -2 1 0 1 0 0 -4 1 0 1 -1 0 3 
1 0 0 -6 1 0 0 2 1 0 0 -2 1 0 0 4 
1 0 1 0 1 -1 1 1 -1 0 2 0 0 6 1 0 
0 3 1 0 1 0 0 5 1 -3 0 3 1 0 0 4 
1 0 0 4 1 0 0 -3 1 0 0 3 1 0 0 2 
1 0 0 5 1 0 1 0 0 7 1 0 1 1 0 3 
1 0 0 1 0 -1 1 3 0 3 1 0 0 5 1 0 
1 -1 0 13 1 0 0 -4 1 0 0 -8 0 4 1 0 
1 0 0 4 1 0 0 -8 1 -3 1 0 0 3 1 0 
0 -3 1 -1 0 -6 1 0 0 -2 1 0 0 -4 1 0 
1 1 1 1 0 -4 1 0 0 -3 1 0 1 -1 0 4 
1 0 0 -4 1 0 0 -1 0 1 1 -3 0 2 1 0 
0 2 0 -4 1 0 0 3 1 0 0 -4 1 0 0 5 
1 0 0 -2 1 0 0 -2 1 0 1 -1 0 3 1 0 
0 -3 1 -3 0 4 1 0 0 2 1 0 0 -6 1 0 
1 -1 0 4 1 0 0 3 1 0 0 -3 1 0 0 -4 
1 0 0 -3 1 4 0 -4 1 0 1 -1 1 1 0 -4 
1 -1 1 0 0 -2 1 0 0 2 1 0 0 -4 1 0 
1 1 1 0 1 0 1093 1282 300 MP stroke
1 -1 1 0 1 0 1 1 1 1 0 -2 1 0 0 4 
1 0 0 0 2 0 1 0 0 5 1 0 0 -3 1 0 
0 6 1 0 0 -4 1 0 0 5 1 0 1 -1 0 1 
0 -1 1 5 1 0 0 4 1 0 0 3 1 0 0 2 
1 0 0 4 1 0 0 7 1 0 0 -9 1 0 0 4 
1 -4 0 4 1 0 0 -5 1 0 1 1 0 -2 1 0 
1 0 0 -2 1 0 0 -3 1 0 0 2 1 1 1 -5 
1 0 0 5 1 0 0 -8 1 0 0 3 1 0 0 1 
0 -1 1 -3 0 3 0 -3 1 0 1 1 1 -1 1 0 
0 -4 1 0 0 7 0 -6 1 0 0 7 1 0 0 -4 
1 1 1 -1 0 4 1 0 1 -1 1 0 1 1 0 6 
2 -5 0 3 1 0 0 3 1 0 0 10 1 0 0 -5 
1 0 0 -4 1 0 1 -1 1 1 0 -4 1 0 1 -1 
0 5 1 0 0 -2 1 0 0 2 1 -1 1 -1 0 -2 
1 0 0 -3 1 0 1 0 1 0 0 2 0 -2 1 0 
1 0 1 -1 0 7 1 0 0 -4 1 1 1 0 1 0 
0 4 1 0 0 -4 1 0 1 0 0 4 1 0 0 -2 
1 2 1 0 0 6 1 0 0 -2 1 -5 0 3 1 0 
0 4 1 0 0 -2 1 0 0 -2 1 2 1 0 0 -2 
1 0 1 1 0 -4 1 0 0 5 1 0 0 -2 1 0 
0 -4 1 0 0 9 1 0 0 -5 1 -4 1 0 1 0 
1 0 0 -3 1 0 0 -4 1 0 0 -4 1 0 0 -2 
1 0 1 -1 0 -4 1 0 1 0 0 -2 1 0 1 -1 
1 -1 0 5 1 0 0 -3 1 0 0 -2 1 0 1 1 
0 -5 1 0 0 -2 1 0 0 -4 1 0 0 -3 1 0 
0 2 1 0 0 -6 1 0 1 0 0 -5 1 0 1 0 
0 -2 1 0 0 -2 1 0 1 1 0 -6 1 0 0 5 
1 0 0 -3 1 0 1 1 0 2 1 0 0 1 0 -1 
1 4 1 1 0 6 1 0 0 2 1 0 0 4 1 0 
0 -4 0 4 1 0 0 3 1 0 0 2 1 0 1 1 
0 7 1 0 0 -2 1 0 0 6 1 3 0 -3 1 0 
0 7 1 0 1 0 0 4 1 0 1 1 1 0 0 3 
1 0 1 -1 0 2 1 0 1 0 0 -2 1 0 1 0 
1 0 0 -5 1 0 0 5 1 0 0 -5 1 0 0 2 
1 0 0 -3 1 0 1 0 0 0 2 0 0 -3 1 0 
1 -1 0 7 1 -7 1 0 1 1 1 0 1 -1 1 0 
1 1 0 6 1 0 1 0 0 5 1 3 0 -5 1 0 
0 2 1 0 1 0 912 1255 300 MP stroke
0 2 1 0 0 -2 1 0 0 -2 1 2 0 2 1 0 
1 0 0 -6 1 0 0 -5 1 0 0 2 1 0 0 -4 
1 0 1 0 1 -1 1 -1 1 1 1 1 0 -4 1 0 
0 -3 0 2 1 0 0 -2 1 0 0 -1 0 1 1 6 
0 -8 1 0 0 2 1 0 0 2 1 0 0 3 1 0 
0 2 1 0 0 4 1 0 1 0 0 5 1 0 1 0 
0 2 1 0 0 6 1 0 1 1 1 0 0 6 1 0 
0 -2 1 0 0 3 0 -3 1 0 0 -2 1 0 0 2 
1 0 1 -1 1 1 1 -1 0 -4 1 0 1 1 0 3 
1 0 1 1 0 -5 1 0 1 1 0 2 1 0 0 -5 
1 0 0 2 1 0 0 1 0 -1 1 -2 0 2 1 0 
0 -4 1 0 0 -2 1 0 1 0 0 4 1 0 1 -1 
1 1 0 -2 1 0 0 -2 1 0 0 6 1 0 0 -6 
1 0 1 -1 -1 0 2 -1 0 2 1 0 0 -4 1 0 
1 0 0 -5 1 0 1 0 1 0 1 1 0 -4 1 0 
0 5 1 0 0 -8 1 0 0 3 2 0 0 -3 1 0 
0 3 1 1 1 3 -1 0 2 0 1 1 0 3 0 -3 
1 0 0 6 1 0 0 1 0 -1 1 -11 0 7 1 0 
0 -2 1 0 0 2 1 0 1 1 1 0 0 -4 0 7 
1 0 0 -3 1 0 0 6 1 0 0 -3 1 0 0 3 
1 0 0 -2 1 0 0 -2 1 0 0 4 1 0 1 1 
1 -1 0 4 1 -4 0 -3 1 0 1 1 1 -1 1 -1 
0 1 0 -1 1 -2 0 -3 1 0 0 -2 1 0 1 0 
0 -2 1 0 0 -2 1 0 0 2 1 -8 1 4 1 0 
1 -1 0 4 1 0 0 -3 1 0 0 2 1 0 0 -2 
1 0 1 0 0 7 1 -1 1 0 0 -3 1 0 1 1 
1 -1 0 5 1 0 1 -1 1 1 0 -4 1 0 0 4 
1 0 1 0 0 2 1 0 0 5 0 -4 1 0 0 2 
1 0 0 -3 1 0 1 1 0 -4 1 0 1 0 0 -5 
1 0 0 -2 1 -1 0 -3 1 0 1 -1 0 -3 1 1 
0 -2 1 0 0 4 1 0 0 -2 1 0 0 -5 1 1 
1 0 0 2 1 0 0 -2 1 0 1 -1 0 -6 1 0 
0 5 1 0 1 0 1 1 1 -1 0 1 0 -1 1 -3 
1 1 1 0 0 2 1 0 1 1 0 -3 1 0 0 6 
1 0 0 -2 0 3 1 0 1 -1 1 1 0 4 1 0 
1 -1 0 5 1 0 0 -3 0 5 1 0 0 -6 1 0 
0 7 1 0 1 0 1 0 1 0 1 1 1 3 -1 0 
2 1 1 -1 1 0 735 1263 300 MP stroke
0 6 1 0 0 -6 1 0 0 -3 1 0 0 4 1 0 
1 -1 0 -4 1 0 1 -1 1 0 0 -3 1 0 0 -2 
1 0 1 -1 1 0 0 -5 1 0 1 0 1 1 0 -4 
1 0 0 4 1 -1 1 0 0 5 1 0 0 -3 1 0 
0 2 1 0 0 -4 1 0 1 0 0 4 1 0 0 -3 
1 0 1 0 0 4 1 3 0 -4 1 0 0 4 1 0 
1 0 0 -2 1 0 0 5 1 0 1 0 1 0 0 -2 
1 0 0 7 1 0 0 -3 699 1266 61 MP stroke
gr

c8
0 sg
 416 1534 mt  -90 rotate
(Sonar meaurements) s
90 rotate
1 sg
0 1372 1799 0 0 -1372 3066 1675 4 MP
PP
-1799 0 0 1372 1799 0 0 -1372 3066 1675 5 MP stroke
4 w
DO
SO
6 w
0 sg
3066 1675 mt 4865 1675 L
3066  303 mt 4865  303 L
3066 1675 mt 3066  303 L
4865 1675 mt 4865  303 L
3066 1675 mt 4865 1675 L
3066 1675 mt 3066  303 L
3066 1675 mt 3066 1657 L
3066  303 mt 3066  320 L
3033 1820 mt 
(0) s
3665 1675 mt 3665 1657 L
3665  303 mt 3665  320 L
3632 1820 mt 
(1) s
4265 1675 mt 4265 1657 L
4265  303 mt 4265  320 L
4232 1820 mt 
(2) s
4865 1675 mt 4865 1657 L
4865  303 mt 4865  320 L
4832 1820 mt 
(3) s
4595 2022 mt 
(x 10) s
%%IncludeResource: font Helvetica
/Helvetica /ISOLatin1Encoding 80 FMSR

4821 1948 mt 
(4) s
3066 1675 mt 3083 1675 L
4865 1675 mt 4847 1675 L
%%IncludeResource: font Helvetica
/Helvetica /ISOLatin1Encoding 120 FMSR

2865 1719 mt 
(0.5) s
3066  989 mt 3083  989 L
4865  989 mt 4847  989 L
2965 1033 mt 
(1) s
3066  303 mt 3083  303 L
4865  303 mt 4847  303 L
2865  347 mt 
(1.5) s
3066 1675 mt 4865 1675 L
3066  303 mt 4865  303 L
3066 1675 mt 3066  303 L
4865 1675 mt 4865  303 L
gs 3066 303 1800 1373 rc
c8
0 5 1 1 0 3 1 1 0 4 1 1 0 4 1 1 
0 -5 1 -1 0 -1 0 5 1 1 0 3 1 -1 0 -2 
2 -2 0 1 1 1 0 3 1 1 0 -4 2 -2 0 3 
1 1 1 -1 1 0 1 1 1 -1 0 -1 0 1 2 2 
1 0 -1 0 2 2 0 1 1 1 0 -6 1 -1 0 -2 
1 1 0 7 2 2 0 -2 1 -1 0 -3 1 -1 0 -2 
1 -1 0 2 1 1 0 3 1 -1 0 -5 1 -1 0 6 
1 1 0 -4 2 -2 0 4 1 1 0 1 0 -2 2 0 
0 1 0 -2 1 -1 0 -4 1 1 0 8 1 1 0 1 
0 -1 1 -1 0 -3 1 -1 0 -1 0 1 1 1 1 1 
-1 0 2 -2 0 -2 1 -1 0 -1 0 2 1 1 0 1 
0 -1 2 0 0 5 2 2 0 3 1 -1 0 -8 1 -1 
0 -1 0 4 1 1 0 3 1 -1 0 -2 2 0 1 1 
-1 0 2 -2 1 -1 0 2 1 1 0 -4 2 -2 0 5 
1 1 0 -5 1 -1 0 -1 0 3 1 1 0 1 0 -4 
1 -1 0 -4 0 2 1 1 0 4 1 -1 0 -2 0 1 
1 1 0 5 1 1 0 1 0 -1 1 -1 0 -2 1 -1 
0 1 2 0 0 -6 1 -1 0 8 1 1 0 5 1 1 
0 -3 1 -1 1 -1 0 -1 2 -2 1 3 -1 0 2 -2 
0 -2 1 -1 1 1 1 0 0 2 1 1 0 3 0 -1 
2 -2 1 1 1 -1 0 -3 1 1 0 6 1 1 0 1 
0 -1 1 -1 0 -6 1 -1 0 4 1 1 0 3 0 -1 
1 -1 0 -2 0 1 1 1 0 3 0 -1 2 0 1 1 
1 -3 -1 0 2 2 0 -6 1 -1 0 5 1 1 0 4 
1 1 0 -2 2 0 0 -2 1 -1 0 -5 1 -1 0 -2 
1 -1 0 -1 0 1 1 1 0 8 1 1 0 -4 2 -2 
1 1 1 -1 0 -1 0 1 1 1 0 2 1 -1 0 -2 
1 -1 1 0 -1 0 2 0 0 -1 2 0 0 2 1 1 
0 -3 1 -1 1 -1 -1 0 2 2 1 1 1 0 1 -1 
0 3 2 2 1 0 -1 0 2 2 0 -4 2 -2 0 2 
2 2 0 2 1 1 0 1 0 -1 1 -1 0 -3 1 -1 
0 3 1 1 0 2 1 -1 1 -1 1 1 0 -2 1 -1 
1 1 0 4 1 1 0 1 0 -3 1 -1 0 -3 1 1 
0 3 1 -1 0 -4 1 -1 0 2 1 1 0 2 1 1 
1 0 0 -2 2 -2 1 1 1 1 1 -1 1 1 0 2 
1 1 0 2 1 -1 0 -8 1 -1 0 1 1 1 0 4 
1 1 0 -3 2 0 0 3 1 1 0 -3 1 -1 0 -3 
0 1 2 2 1 1 4505 677 300 MP stroke
1 1 0 -3 1 -1 0 4 1 1 1 -1 0 3 1 1 
0 -5 1 -1 0 -5 1 -1 0 5 2 2 0 -1 2 -2 
1 -1 0 -1 1 -1 0 3 1 1 1 -1 1 -1 0 3 
1 1 1 -1 0 -3 1 1 1 2 -1 0 2 -2 0 -1 
1 1 0 3 1 1 0 -2 1 -1 0 -3 1 -1 0 2 
1 1 0 1 1 -1 1 -1 -1 0 2 2 0 1 0 -2 
1 -1 0 -3 1 -1 0 4 1 1 1 -1 1 -1 1 -1 
-1 0 2 2 0 -1 1 -1 0 -2 1 1 1 1 1 1 
1 1 0 -3 1 -1 1 1 0 -2 1 -1 0 3 1 1 
0 -2 1 -1 0 -2 1 1 0 1 1 1 0 1 0 -1 
1 -1 0 -2 1 1 0 2 1 1 0 -2 1 -1 0 -2 
1 -1 1 3 -1 0 2 -2 0 -5 1 -1 0 3 1 1 
0 6 1 1 1 -1 0 -2 1 1 1 1 1 -1 0 3 
1 -1 0 -4 1 -1 0 2 1 1 0 -8 1 -1 0 -2 
0 2 1 1 0 3 1 1 0 2 1 1 0 1 0 -2 
1 -1 0 -4 0 1 1 1 0 7 1 1 0 -3 2 -2 
0 5 1 1 1 -2 -1 0 2 2 0 1 0 -3 1 -1 
0 -1 0 4 1 1 0 3 1 -1 0 -4 1 -1 0 2 
2 0 1 -7 -1 0 2 2 0 -2 1 -1 0 -1 1 -1 
1 1 0 6 1 1 0 6 1 1 1 3 -1 0 2 -2 
0 -4 1 1 0 3 0 -2 1 -1 0 -16 1 -1 0 -1 
0 10 1 1 0 6 1 1 0 -3 1 -1 0 -1 0 1 
2 0 0 3 1 1 0 5 1 -1 0 -3 1 -1 1 -1 
0 -8 1 -1 0 4 1 1 0 3 1 1 0 -8 1 -1 
0 -2 0 2 1 1 0 4 1 1 1 0 1 1 0 2 
2 0 0 -3 1 -1 0 5 1 1 1 0 0 2 1 1 
0 2 1 1 0 2 1 1 0 -7 1 -1 0 -5 0 2 
1 1 0 6 1 1 0 -2 1 -1 0 2 1 1 1 0 
0 2 1 1 0 -6 1 -1 0 2 1 1 0 -3 1 -1 
0 -3 1 1 0 2 1 1 1 1 0 -2 1 -1 0 -1 
1 -1 1 -1 1 1 -1 0 2 -2 1 0 0 2 1 1 
1 -1 0 -2 1 1 0 3 1 1 1 1 1 -1 1 -1 
0 -2 1 -1 1 1 0 2 1 1 1 0 -1 0 2 0 
0 -2 1 -1 0 -2 0 1 2 2 1 0 1 -1 1 -1 
0 3 2 2 1 0 0 -2 1 -1 0 -1 0 1 2 0 
0 -1 1 -1 1 0 1 1 1 -1 0 2 1 1 0 1 
0 -3 2 -2 0 -2 1 -1 0 -3 1 -1 1 1 1 2 
-1 0 2 -2 0 1 4330 687 300 MP stroke
2 0 1 0 0 1 2 2 1 -1 1 -1 1 1 -1 0 
2 -2 0 -2 0 1 1 1 0 3 1 1 0 -3 1 -1 
0 -1 0 1 2 2 0 2 1 1 0 -2 2 -2 1 1 
1 -1 1 -1 1 1 -1 0 2 -2 0 -3 1 -1 0 3 
1 1 0 2 1 1 0 -2 1 -1 0 3 1 1 0 1 
0 -2 1 -1 0 -1 0 3 1 1 0 3 0 -1 1 -1 
0 -7 1 -1 0 5 1 1 1 1 -1 0 2 -2 0 -7 
1 -1 0 4 1 1 0 5 1 1 0 1 0 -3 1 -1 
0 -1 1 1 0 1 1 1 1 -1 1 0 0 -2 1 -1 
1 0 0 -4 2 0 0 6 1 1 0 3 1 -1 0 -4 
1 -1 0 -1 0 1 1 1 0 3 2 2 0 4 1 -1 
0 -5 1 -1 0 3 1 1 0 -6 1 -1 0 -1 0 9 
1 1 0 2 0 -4 1 -1 0 -2 0 3 1 1 0 5 
0 -1 1 -1 0 -7 1 -1 1 -1 0 4 1 1 0 5 
1 1 0 1 2 0 0 -6 1 -1 0 -1 1 -1 0 -6 
1 -1 0 -2 0 3 1 1 0 4 1 -1 0 -3 1 1 
0 6 1 1 0 4 1 -1 0 -3 1 -1 0 -3 1 -1 
0 3 1 1 1 5 -1 0 2 -2 0 -2 0 1 2 0 
0 -5 2 0 0 4 2 0 0 -2 1 -1 0 5 1 1 
0 1 1 -1 0 -7 1 -1 0 3 1 1 0 3 1 1 
0 -2 0 1 2 2 0 -2 2 -2 0 3 1 -1 0 -7 
1 -1 0 -2 1 1 0 5 2 0 0 -2 1 -1 0 -1 
0 1 1 1 0 1 1 -1 0 -3 1 1 0 4 1 1 
0 1 0 -2 1 -1 0 1 1 1 1 -1 0 -4 1 -1 
0 5 1 1 0 3 1 -1 1 -3 -1 0 2 2 1 1 
0 -4 1 -1 0 -2 1 1 0 2 1 1 1 -1 1 -2 
-1 0 2 2 1 0 1 1 1 1 1 1 0 2 0 -1 
2 -2 0 -1 2 -2 1 -1 1 0 1 1 0 2 1 1 
0 1 0 -1 1 -1 0 -2 1 -1 0 2 1 1 0 -2 
1 -1 1 -1 -1 0 2 2 1 -1 -1 0 2 2 0 2 
1 1 0 -2 1 -1 0 -2 1 1 0 2 0 -1 1 -1 
1 -3 -1 0 2 2 1 0 1 0 1 0 -1 0 2 2 
1 0 1 1 1 0 1 -1 1 1 0 2 1 1 0 -2 
1 -1 1 1 1 -1 0 3 1 1 0 5 1 1 0 1 
0 -1 1 -1 0 -7 1 -1 0 -3 1 1 0 2 1 1 
0 2 1 1 1 -1 1 1 -1 0 2 -2 0 4 2 0 
0 -1 0 1 1 1 0 1 1 1 0 1 0 -2 2 -2 
1 -1 0 -2 0 1 4154 676 300 MP stroke
1 1 0 6 1 -1 0 -4 1 -1 0 -1 0 1 1 1 
1 2 -1 0 2 -2 0 -1 0 1 1 1 1 -1 -1 0 
2 2 0 3 0 -1 1 -1 0 -3 1 -1 0 6 1 1 
0 -3 1 -1 0 -5 2 0 1 4 -1 0 2 -2 0 -2 
1 -1 0 1 2 2 0 1 0 -1 1 -1 1 -6 -1 0 
2 2 0 -2 1 -1 0 3 1 1 0 -2 1 -1 0 -1 
0 3 1 1 1 3 -1 0 2 0 0 -3 1 -1 0 -4 
1 -1 0 4 2 0 0 -5 1 -1 0 6 1 1 0 3 
1 1 0 -2 1 -1 0 3 1 1 0 1 0 -3 1 -1 
0 -4 1 1 0 4 1 -1 1 1 0 7 1 1 0 1 
0 -1 1 -1 0 -2 1 -1 1 1 0 2 1 1 0 -2 
1 -1 0 -4 1 -1 1 -1 1 0 -1 0 2 0 1 1 
0 -3 2 -2 1 0 1 -4 -1 0 2 2 1 1 0 -2 
1 -1 1 1 0 2 1 1 0 3 1 1 1 1 0 1 
0 -1 2 -2 0 4 2 2 1 1 0 2 2 0 0 1 
1 1 0 1 0 -1 1 -1 0 -6 1 1 0 13 1 1 
0 -5 1 -1 0 -1 1 1 0 -5 1 -1 0 -1 0 3 
1 1 0 2 0 -2 1 -1 1 -5 -1 0 2 2 1 1 
0 -1 0 1 1 1 0 3 1 1 0 -7 2 0 0 1 
0 -1 1 -1 1 -6 -1 0 2 2 0 1 1 1 1 -1 
1 1 1 -1 1 -2 -1 0 2 2 0 -2 1 -1 1 1 
0 -2 1 -1 0 -1 0 1 2 2 1 -1 1 -1 1 2 
-1 0 2 0 1 0 0 -2 1 -1 0 1 1 1 0 -2 
1 -1 0 -1 0 3 1 1 0 4 1 1 1 0 1 0 
-1 0 2 -2 0 -4 1 1 0 7 1 1 1 -1 1 0 
0 -4 2 0 1 1 -1 0 2 -2 0 2 1 1 0 1 
0 -2 1 -1 0 -5 1 -1 1 4 -1 0 2 -2 0 -1 
0 1 1 1 0 2 1 1 0 -5 1 -1 0 -2 0 1 
1 1 1 3 -1 0 2 -2 0 -4 1 -1 0 -1 0 1 
1 1 0 3 1 1 0 -7 1 1 0 6 1 1 0 1 
0 -1 1 -1 1 1 0 -1 1 -1 1 -1 0 2 1 1 
1 1 0 1 2 0 0 -3 1 -1 0 6 1 1 0 2 
1 -1 0 -9 1 -1 0 -1 0 7 1 1 0 5 1 1 
0 -4 1 -1 0 -2 1 1 0 1 0 -1 1 -1 0 -4 
1 -1 0 -1 0 1 1 1 0 4 1 1 1 -3 -1 0 
2 2 0 4 1 1 0 3 1 1 0 -5 1 -1 0 -4 
1 -1 1 0 1 0 0 3 1 1 0 4 1 1 0 -5 
1 -1 0 -1 1 -1 3984 682 300 MP stroke
0 -2 1 -1 0 3 1 1 0 1 0 -3 1 -1 0 -4 
1 1 0 3 1 1 1 1 1 0 1 1 1 1 -1 0 
2 -2 0 2 1 1 0 1 1 -1 0 -4 1 -1 0 -2 
1 1 0 4 1 1 0 1 1 -1 0 -2 1 -1 1 0 
0 5 2 0 0 -8 2 0 0 1 0 -2 1 -1 0 -1 
0 1 1 1 0 4 1 1 1 -1 0 -2 1 -1 1 0 
1 0 0 -2 1 -1 0 4 1 1 0 -3 1 -1 0 -1 
0 1 1 1 0 4 1 1 1 -1 0 -1 0 1 1 1 
0 1 0 -1 1 -1 0 -5 1 1 0 10 1 1 0 -3 
2 -2 0 7 1 1 0 1 0 -4 1 -1 0 -2 0 2 
1 1 1 4 -1 0 2 -2 0 -3 1 -1 0 2 2 2 
0 -2 1 -1 0 8 1 1 0 -2 1 -1 0 -2 1 1 
1 0 0 -1 0 1 1 1 0 -2 1 -1 0 -2 1 1 
0 4 1 -1 0 -5 1 -1 0 4 1 1 0 -2 1 -1 
1 -1 0 -3 1 -1 0 3 1 1 0 1 1 -1 0 -2 
1 -1 1 -1 1 -1 -1 0 2 0 0 -3 2 0 0 2 
1 1 0 -3 1 -1 0 1 1 1 0 3 1 1 1 0 
-1 0 2 2 0 2 2 0 1 -2 -1 0 2 0 0 -2 
1 -1 0 2 1 1 0 1 0 -3 1 -1 0 3 1 1 
0 2 1 1 0 -1 0 1 1 1 0 1 0 -2 1 -1 
0 -4 1 1 0 8 1 1 0 -7 1 -1 0 -4 1 1 
0 7 1 1 0 1 0 -5 1 -1 0 -1 0 7 1 1 
0 3 1 -1 0 -3 1 -1 0 2 2 2 0 2 1 -1 
0 -5 1 -1 0 2 1 1 0 3 2 0 0 -2 2 0 
0 1 0 -1 1 -1 0 -3 1 1 1 1 1 -1 0 -4 
1 -1 0 -5 1 -1 0 3 1 1 0 -4 1 -1 0 -1 
0 1 1 1 0 1 0 -1 1 -1 1 -1 1 3 -1 0 
2 -2 0 -3 1 1 0 4 1 1 0 -4 1 -1 0 6 
2 2 0 2 1 1 0 2 1 1 0 2 1 1 1 1 
1 1 1 1 0 -2 1 -1 1 -1 0 -1 0 2 1 1 
0 5 1 1 0 -9 1 -1 0 -1 0 6 1 1 0 2 
0 -3 1 -1 0 -4 2 -2 0 -4 1 -1 1 4 -1 0 
2 -2 0 -4 1 -1 0 2 2 2 0 4 1 1 0 -5 
1 -1 0 -1 0 1 1 1 1 4 -1 0 2 0 0 2 
1 -1 0 -4 1 -1 0 6 2 2 0 -2 1 -1 0 3 
2 2 0 -4 1 -1 0 -2 0 1 1 1 0 8 1 1 
0 3 0 -2 1 -1 0 -8 1 -1 0 4 1 -1 0 -5 
1 -1 0 3 1 1 3819 672 300 MP stroke
1 1 0 -3 1 -1 0 1 1 1 1 2 -1 0 2 -2 
1 -1 1 0 1 0 1 1 1 1 1 -3 -1 0 2 2 
0 -2 1 -1 0 -4 1 -1 0 -1 0 1 1 1 0 3 
1 1 1 1 0 3 1 1 1 1 1 0 1 1 0 6 
1 1 0 1 1 -1 0 -4 2 -2 1 1 0 5 1 1 
0 5 1 -1 0 -4 1 -1 0 5 1 1 0 2 1 -1 
0 -8 1 -1 0 -2 0 2 1 1 0 3 1 1 0 -9 
1 -1 0 -3 0 2 1 1 0 10 1 1 0 1 0 -1 
1 -1 0 -3 1 -1 1 -1 0 -6 1 -1 0 -10 1 -1 
0 -2 0 2 1 1 0 24 1 1 0 4 0 -9 1 -2 
0 -20 1 -1 0 7 1 1 0 4 0 -4 1 -1 0 -12 
1 -1 0 13 1 1 0 1 0 -5 1 -1 0 -1 0 3 
1 1 0 3 1 1 0 -5 1 -1 0 -1 0 8 1 1 
0 7 1 -1 0 -10 1 -1 0 -2 0 2 1 1 0 6 
0 -2 1 -1 0 -11 1 1 0 20 1 1 0 -14 1 -1 
0 -3 0 1 1 1 0 3 2 2 1 -1 0 -1 0 1 
1 1 0 1 1 -1 0 -1 1 1 0 5 1 1 0 -6 
1 -1 0 -1 1 1 0 8 1 1 0 2 1 -1 0 -13 
1 -1 0 -3 0 1 1 1 0 3 0 -1 1 -1 0 -4 
1 -1 1 1 0 1 0 -1 1 -1 0 -3 1 1 0 8 
1 1 0 1 1 -1 0 3 1 1 0 1 0 -1 1 -1 
0 -1 1 -1 1 0 -1 0 2 -2 0 2 1 1 0 6 
1 1 0 -1 1 -1 0 -2 1 -1 0 -5 1 -1 1 -1 
1 1 0 -2 1 -1 0 2 1 1 0 1 0 -4 1 -1 
0 -5 0 2 1 1 0 9 1 1 0 1 0 -3 1 -1 
0 -2 1 -1 0 4 1 1 0 -5 1 -1 0 3 1 1 
0 3 1 -1 0 -9 1 -1 0 -5 1 1 0 10 1 1 
0 4 0 -1 1 -1 0 -6 0 1 1 1 0 10 1 -1 
0 -13 1 -1 0 10 1 1 0 2 0 -2 1 -1 0 -1 
0 2 2 0 1 1 0 -2 1 -1 0 -2 1 -1 0 2 
1 1 0 1 0 -1 1 -1 0 -5 1 -1 0 8 2 0 
1 -1 0 -1 2 -2 1 0 1 1 1 0 0 -2 1 -1 
1 -1 1 1 0 5 1 1 0 -5 1 -1 0 11 1 2 
0 6 0 -1 1 -1 1 -5 -1 0 2 2 1 -1 1 -3 
-1 0 2 2 1 0 1 1 0 -2 2 -2 1 -2 -1 0 
2 2 0 1 0 -1 2 -2 1 0 1 0 0 -2 1 -1 
1 1 0 3 2 2 1 1 -1 0 2 -2 1 -1 1 -1 
1 -1 1 1 1 0 3655 674 300 MP stroke
0 -2 1 -1 0 2 1 1 0 -1 1 -1 1 -1 0 -2 
2 0 0 1 0 -1 1 -1 0 -3 1 -1 0 4 2 2 
1 0 1 -1 1 0 0 -2 1 -1 0 4 1 1 0 2 
0 -1 1 -1 1 -4 -1 0 2 2 0 3 2 0 0 -4 
1 -1 1 1 1 0 -1 0 2 2 0 3 2 0 1 -1 
-1 0 2 2 0 1 2 0 0 -2 1 -1 0 5 1 1 
0 1 1 1 0 -3 1 -1 0 -1 1 1 0 2 1 1 
1 1 1 -1 1 1 0 -2 1 1 0 2 1 1 0 1 
0 -1 2 -2 0 3 1 1 0 1 0 -2 1 -1 0 -1 
0 1 1 1 1 1 0 -2 1 -1 0 -1 0 1 1 1 
0 4 1 -1 1 -4 -1 0 2 2 0 -3 1 -1 0 -2 
1 1 0 6 1 1 0 1 0 -6 1 -1 0 -4 1 1 
1 3 -1 0 2 -2 0 -2 1 1 1 5 -1 0 2 -2 
0 -4 1 -1 0 2 1 1 0 -2 2 -2 0 -1 0 1 
1 1 1 0 -1 0 2 -2 1 0 0 1 0 -1 2 -2 
0 3 1 1 0 -2 1 -1 0 -4 1 -1 0 -1 0 2 
2 2 1 -1 0 2 1 1 0 3 1 -1 1 1 0 3 
1 1 0 -3 1 -1 1 1 1 -1 0 -2 1 -1 0 7 
1 1 0 2 1 -1 0 -2 1 -1 1 1 0 -1 2 0 
0 6 1 1 0 2 1 1 0 -3 1 -1 0 3 1 1 
0 -2 1 -1 0 -2 1 -1 0 -2 1 -1 0 8 1 1 
0 9 1 -1 1 -9 -1 0 2 2 1 0 -1 0 2 2 
0 -6 1 -1 0 2 1 1 0 2 0 -1 1 -1 0 -1 
0 1 1 1 0 3 0 -1 1 -1 0 -2 1 -1 1 1 
0 -2 1 -1 0 -3 1 -1 0 2 1 1 1 1 1 -3 
-1 0 2 2 0 1 0 -1 1 -1 0 -4 1 -1 0 2 
1 1 0 3 0 -1 1 -1 0 -5 1 1 0 5 1 1 
0 1 0 -1 1 -1 0 -4 1 -1 0 2 1 1 0 -2 
1 -1 0 2 1 1 0 3 1 -1 0 -3 1 -1 0 -1 
0 2 1 1 0 6 1 -1 0 -7 1 -1 0 3 1 1 
1 1 -1 0 2 -2 1 1 0 4 1 1 0 -2 1 -1 
0 -2 1 -1 0 2 2 0 0 -3 2 -2 0 5 1 1 
0 1 0 -3 1 -1 0 2 1 1 0 2 1 1 0 1 
0 -2 1 -1 0 -1 0 2 1 1 0 2 0 -1 1 -1 
0 -4 1 -1 0 2 2 2 0 4 1 1 0 -7 1 -1 
0 -2 1 1 0 5 1 1 0 -6 1 -1 0 -3 0 3 
1 1 0 5 1 -1 0 -5 1 -1 1 -1 -1 0 2 2 
1 -1 0 -4 1 -1 3488 675 300 MP stroke
0 5 1 1 0 -3 1 -1 0 -2 0 2 1 1 0 3 
1 -1 0 -2 1 -1 1 1 1 3 -1 0 2 -2 1 0 
0 -2 2 0 0 5 1 1 1 1 -1 0 2 -2 0 -5 
1 -1 1 -4 -1 0 2 2 0 3 2 2 0 -3 1 -1 
0 -1 0 1 1 1 0 2 1 1 1 1 0 -1 2 -2 
0 -4 2 0 0 2 0 -1 1 -1 0 -4 1 -1 0 3 
2 0 0 2 1 1 0 -3 1 -1 0 -1 0 3 1 1 
0 2 1 -1 0 -5 1 -1 0 -2 0 1 1 1 1 5 
-1 0 2 -2 1 -1 1 3 -1 0 2 -2 1 -1 0 -1 
2 0 0 3 1 1 0 2 1 1 0 -2 1 -1 0 -2 
0 1 2 2 1 1 0 2 2 0 1 1 0 2 1 1 
0 -1 1 -1 1 1 0 2 0 -1 1 -1 0 -1 1 -1 
0 4 1 1 0 -3 2 -2 0 3 1 1 0 1 0 -1 
1 -1 0 -1 0 1 1 1 0 -1 1 -1 0 4 1 1 
0 4 1 1 0 -4 1 -1 0 -4 1 -1 1 0 1 -1 
0 3 1 1 0 -6 1 -1 0 -1 0 3 1 1 0 2 
0 -1 1 -1 0 -1 1 -1 1 0 0 -3 2 -2 0 3 
1 1 0 -4 1 -1 1 -1 -1 0 2 2 1 -1 1 -3 
-1 0 2 2 0 -2 1 -1 0 -3 1 1 0 2 1 -1 
0 -2 1 1 1 3 -1 0 2 -2 0 2 1 1 1 0 
-1 0 2 -2 0 3 1 1 0 1 0 -2 1 -1 0 -2 
1 -1 0 2 1 1 0 1 1 1 1 0 0 2 1 1 
0 3 1 1 0 -2 2 0 1 -1 0 -2 2 0 0 2 
1 -1 1 -1 -1 0 2 2 0 -2 2 0 0 2 1 1 
1 -2 -1 0 2 2 0 -1 2 0 0 2 0 -1 1 -1 
0 -5 1 -1 0 2 1 1 1 6 -1 0 2 -2 0 -2 
1 -1 1 -1 0 2 1 1 0 -2 1 -1 0 -2 0 1 
1 1 0 2 1 1 0 -2 0 1 2 2 1 1 1 0 
1 1 1 0 0 -2 2 0 0 -2 1 -1 0 -2 0 1 
1 1 0 2 1 -1 1 -6 -1 0 2 2 0 4 2 0 
0 2 1 1 0 7 1 1 0 -9 1 -1 0 -5 0 1 
1 1 0 3 1 -1 0 -2 1 -1 0 2 1 1 1 3 
-1 0 2 -2 1 -1 1 0 0 2 1 1 1 1 1 1 
1 1 1 1 0 3 1 1 1 2 -1 0 2 -2 0 3 
1 1 0 -6 2 0 0 5 1 1 0 -5 1 -1 0 -4 
1 1 0 1 0 -1 1 -1 0 -5 1 -1 0 -1 1 -1 
1 -1 1 -1 1 1 -1 0 2 -2 1 -1 0 3 1 1 
1 0 1 -1 0 3 3307 677 300 MP stroke
1 1 0 2 1 1 0 -3 1 -1 0 3 1 1 0 6 
1 1 0 -7 1 -1 0 -1 1 -1 1 -1 0 -2 1 1 
0 4 1 1 0 3 1 -1 0 -5 2 0 1 0 0 -1 
2 -2 1 1 1 -1 0 -1 0 1 1 1 1 0 1 -2 
-1 0 2 2 1 1 1 -1 1 1 1 1 1 0 1 1 
1 1 1 -1 0 -2 1 -1 0 -2 1 1 0 3 1 1 
1 1 1 -2 -1 0 2 2 0 -2 1 -1 1 0 1 0 
1 -1 0 -1 2 -2 0 -1 0 1 1 1 0 5 1 -1 
0 -2 1 -1 1 0 1 -1 0 2 1 1 1 1 -1 0 
2 0 1 1 0 -2 1 -1 0 -4 1 1 0 1 1 1 
0 2 1 1 0 2 1 1 1 0 -1 0 2 2 0 -1 
1 -1 1 -1 0 2 2 2 1 1 1 1 0 -1 2 -2 
0 -1 1 1 0 9 1 1 0 -4 1 -1 0 -3 1 -1 
0 6 1 1 0 5 1 -1 0 -6 1 -1 0 -7 1 -1 
0 4 1 1 0 5 1 -1 0 -8 2 0 1 -1 0 14 
1 1 0 2 0 -5 1 -1 0 -4 0 2 1 1 0 3 
0 -2 1 -1 0 -4 1 -1 0 1 0 -2 1 -1 0 -8 
0 1 1 1 0 13 1 1 0 -4 1 -1 0 -2 1 -1 
1 1 0 -2 2 0 1 -1 1 -1 0 2 2 0 0 -2 
1 -1 0 -3 1 -1 1 1 1 3 -1 0 2 -2 0 -1 
0 1 1 1 0 -1 1 -1 0 -1 1 1 1 1 -1 0 
2 -2 1 1 1 -1 1 0 1 0 1 -1 1 1 0 1 
0 -1 1 -1 1 0 0 2 1 -1 1 -1 -1 0 2 2 
1 0 -1 0 2 -2 0 2 1 1 1 1 1 -1 0 1 
2 2 0 1 0 -1 1 -1 0 -2 0 1 2 2 0 -2 
1 -1 1 1 -1 0 2 -2 1 1 -1 0 2 -2 0 -2 
1 -1 1 1 0 2 1 1 1 -1 1 -2 -1 0 2 2 
1 -1 1 -1 -1 0 2 2 1 1 1 -1 -1 0 2 2 
1 -1 1 1 1 1 1 -3 -1 0 2 2 1 0 1 1 
1 0 1 0 1 -1 1 0 1 1 0 2 1 1 1 -1 
0 -4 1 -1 1 1 1 -2 -1 0 2 2 1 -1 1 -1 
1 1 0 -1 2 -2 1 -1 1 0 1 1 1 0 1 -1 
0 2 1 1 0 -3 1 -1 0 -1 0 1 1 1 0 1 
1 1 0 -2 1 -1 1 1 0 2 1 1 0 -3 2 0 
1 1 0 -2 2 0 1 0 1 1 1 1 1 1 1 1 
1 0 1 3 -1 0 2 -2 1 0 -1 0 2 -2 0 2 
2 2 1 -1 0 -2 1 -1 0 -1 0 1 1 1 0 4 
1 -1 0 -3 1 -1 3106 681 300 MP stroke
0 3 2 0 1 1 0 -2 1 -1 0 -1 1 1 0 2 
1 1 1 0 0 1 0 -1 1 -1 1 -2 -1 0 2 2 
1 0 1 1 1 -1 -1 0 2 2 0 2 1 1 1 1 
0 -2 1 -1 0 -1 0 1 1 1 1 5 -1 0 2 -2 
0 2 1 1 0 -3 2 -2 1 0 0 3 1 1 0 -1 
2 -2 0 -1 2 -2 0 2 1 1 1 1 1 1 1 1 
1 1 -1 0 2 -2 0 -1 0 1 1 1 0 1 0 -1 
2 -2 1 0 1 1 0 2 3066 668 61 MP stroke
gr

c8
0 sg
2783 1196 mt  -90 rotate
(PTAM z) s
90 rotate
1 sg
0 1372 1799 0 0 -1372 699 3586 4 MP
PP
-1799 0 0 1372 1799 0 0 -1372 699 3586 5 MP stroke
4 w
DO
SO
6 w
0 sg
 699 3586 mt 2498 3586 L
 699 2214 mt 2498 2214 L
 699 3586 mt  699 2214 L
2498 3586 mt 2498 2214 L
 699 3586 mt 2498 3586 L
 699 3586 mt  699 2214 L
 699 3586 mt  699 3568 L
 699 2214 mt  699 2231 L
 666 3731 mt 
(0) s
1298 3586 mt 1298 3568 L
1298 2214 mt 1298 2231 L
1265 3731 mt 
(1) s
1898 3586 mt 1898 3568 L
1898 2214 mt 1898 2231 L
1865 3731 mt 
(2) s
2498 3586 mt 2498 3568 L
2498 2214 mt 2498 2231 L
2465 3731 mt 
(3) s
2228 3933 mt 
(x 10) s
%%IncludeResource: font Helvetica
/Helvetica /ISOLatin1Encoding 80 FMSR

2454 3859 mt 
(4) s
 699 3586 mt  716 3586 L
2498 3586 mt 2480 3586 L
%%IncludeResource: font Helvetica
/Helvetica /ISOLatin1Encoding 120 FMSR

 498 3630 mt 
(0.5) s
 699 2900 mt  716 2900 L
2498 2900 mt 2480 2900 L
 598 2944 mt 
(1) s
 699 2214 mt  716 2214 L
2498 2214 mt 2480 2214 L
 498 2258 mt 
(1.5) s
 699 3586 mt 2498 3586 L
 699 2214 mt 2498 2214 L
 699 3586 mt  699 2214 L
2498 3586 mt 2498 2214 L
gs 699 2214 1800 1373 rc
14.4 w
1 0 0 6 1 0 1 0 0 4 1 0 1 -1 0 16 
1 0 0 -10 1 0 0 2 2 9 1 -1 0 -3 1 0 
1 -1 0 5 1 0 1 -1 1 0 0 7 1 0 1 0 
0 -6 1 0 1 -1 0 4 1 -1 1 1 0 -3 1 0 
0 -2 1 0 0 2 1 0 1 -1 0 3 1 0 0 -3 
1 0 0 -4 1 0 1 0 1 0 0 -3 1 0 0 2 
1 0 0 2 1 0 0 -4 1 0 0 2 1 0 0 -3 
1 0 0 5 1 0 1 0 0 3 1 0 1 -1 0 -2 
1 0 0 -2 1 8 0 -3 1 0 1 1 1 0 1 0 
0 6 1 0 0 -7 0 7 1 0 0 -4 1 0 1 0 
0 3 1 -2 1 0 0 -5 0 2 1 0 0 3 1 0 
0 -5 1 0 1 1 0 -7 1 0 0 -4 1 0 1 1 
1 -1 0 -5 0 4 1 0 1 0 0 -7 1 -2 1 -1 
0 -3 1 0 0 -2 1 0 1 1 0 -4 1 0 0 -4 
1 0 1 1 0 3 1 0 0 -4 1 0 0 4 1 0 
0 -4 1 0 0 4 1 0 1 1 0 2 1 0 1 4 
1 1 1 1 0 3 1 0 0 7 1 0 0 -3 1 0 
1 0 0 2 1 0 0 -3 1 0 1 0 0 3 1 0 
1 1 1 1 0 3 1 0 0 3 1 0 0 5 1 0 
0 2 1 0 0 -2 1 0 0 2 1 0 0 3 1 0 
1 0 0 -3 1 0 0 5 1 0 1 0 0 4 1 0 
1 0 0 -4 1 0 0 3 1 4 0 2 1 0 0 -2 
1 0 1 0 0 2 1 0 1 0 0 -2 1 0 0 3 
1 0 0 -7 1 0 1 0 0 -3 1 0 1 -1 1 1 
0 -2 1 0 0 -5 1 0 0 -2 1 0 0 -2 1 0 
0 -4 1 -4 0 -3 1 0 1 0 1 0 0 -5 1 0 
0 -2 1 0 0 2 1 0 0 -2 1 0 1 0 0 -2 
1 0 1 0 0 7 1 0 0 -6 1 0 0 7 1 0 
0 -7 1 0 0 4 1 0 0 2 1 0 0 -3 1 0 
0 3 1 0 1 1 1 -1 1 1 1 0 0 -1 0 1 
1 3 1 0 0 -2 0 2 1 0 0 -2 1 0 0 3 
1 7 1 -1 1 1 0 -4 1 3 0 -5 0 3 1 0 
1 0 0 2 1 0 0 9 1 0 0 -7 0 3 1 0 
0 -4 1 0 1 1 0 -2 1 0 0 -3 1 0 0 4 
1 0 0 -3 1 -1 1 1 0 -3 1 0 0 5 1 1 
1 0 0 -3 1 0 0 3 1 -3 0 3 1 0 1 0 
1 1 0 -2 1 0 0 4 1 0 0 -2 1 0 0 3 
1 0 0 -4 1 0 2138 3167 300 MP stroke
0 3 1 0 0 -3 1 0 0 3 1 0 1 0 1 1 
0 3 0 -6 1 0 0 3 1 0 1 -1 0 -3 1 0 
0 3 1 0 0 4 1 0 0 -6 1 0 1 -1 1 -1 
0 -5 1 0 0 2 1 0 0 3 1 0 0 -5 1 0 
0 2 1 0 1 1 0 2 1 0 0 2 1 0 1 0 
0 -2 1 0 1 0 0 4 1 0 0 -2 1 0 1 -1 
0 -6 1 0 0 5 1 0 0 -2 1 0 0 3 1 0 
0 -4 1 0 0 -3 1 0 1 -1 1 1 0 10 1 0 
0 -10 1 0 0 6 1 -6 1 1 0 -2 1 0 1 1 
0 -4 1 0 1 0 1 -1 1 0 0 -2 1 0 0 3 
1 0 1 1 0 2 1 0 0 -3 1 0 0 -3 1 0 
0 3 1 0 0 -3 1 0 0 2 1 0 1 0 1 -11 
1 0 0 -3 1 0 0 -6 1 -1 1 0 0 -3 1 0 
0 -2 1 0 1 0 0 5 1 0 0 -4 1 0 0 3 
1 8 0 -7 1 0 0 11 1 0 0 -4 1 0 0 8 
1 0 1 11 1 0 1 0 1 1 0 10 1 0 0 -10 
1 0 1 0 1 0 1 0 0 2 1 0 1 0 0 -10 
1 0 1 -1 0 -3 1 0 1 0 1 0 1 -1 0 4 
1 0 0 -4 1 0 0 -6 1 0 1 0 1 7 1 0 
1 0 0 -3 1 0 0 3 1 0 0 3 1 0 0 -3 
1 4 0 6 1 0 1 1 0 8 1 0 0 2 1 0 
1 0 1 1 1 0 1 0 1 0 1 0 0 -12 1 0 
0 12 1 0 0 -19 1 0 0 5 1 0 0 -8 1 0 
1 0 0 4 1 0 0 -4 1 0 0 -9 1 1 1 1 
1 2 0 -4 1 0 1 1 0 3 1 0 1 1 0 4 
1 0 0 7 1 0 1 0 0 7 1 0 1 1 0 13 
1 0 1 1 1 1 0 9 1 0 0 -2 1 0 0 8 
1 0 0 -4 1 0 0 2 1 0 0 8 1 0 0 -6 
1 0 0 3 1 0 0 -3 1 0 0 -1 0 1 1 -4 
0 4 1 0 0 -8 1 0 0 4 1 0 0 -4 1 -1 
0 -3 1 0 1 1 1 0 0 -12 1 0 1 1 0 -4 
1 0 1 0 0 -5 1 1 1 0 1 -1 0 -3 1 0 
1 -4 1 0 0 -4 1 0 0 4 1 0 0 -6 1 -1 
1 1 0 -2 1 0 0 2 1 0 1 -1 0 -3 1 0 
0 4 1 0 0 2 1 0 0 4 1 0 1 1 0 9 
1 0 0 -6 1 0 0 6 1 0 0 -2 1 0 1 -1 
1 1 0 3 1 0 1 1 0 -2 1 0 1 0 0 -3 
1 0 0 -2 1 0 1955 3173 300 MP stroke
1 -1 1 -1 1 0 0 -2 1 0 0 -5 1 0 0 -3 
1 0 0 1 0 -1 1 3 0 -6 1 0 0 -5 1 0 
0 3 1 0 0 -2 1 0 1 0 1 0 1 0 0 2 
1 0 0 -3 1 0 0 3 1 0 0 4 1 0 0 -3 
1 0 0 -4 1 0 0 4 1 0 1 4 -1 0 2 -5 
0 4 1 0 1 1 0 3 1 0 0 -2 1 0 0 3 
1 0 0 -3 1 0 0 9 1 0 0 -6 1 0 0 4 
1 0 1 0 0 2 1 0 1 0 1 1 0 -1 0 1 
1 -3 0 2 1 0 0 2 1 0 0 -2 1 0 0 -2 
1 0 0 -2 1 0 0 -3 1 0 0 -3 1 0 0 3 
1 0 0 -3 1 0 1 -1 0 -2 1 0 0 -5 0 4 
1 0 0 -11 1 1 1 0 0 -6 1 0 0 -2 1 0 
0 2 1 0 0 -2 1 0 0 -3 1 0 1 -1 1 0 
0 3 1 0 0 9 1 0 0 2 1 0 0 3 1 0 
0 2 1 0 0 6 0 -6 1 0 0 4 1 0 0 3 
1 0 1 10 0 -4 1 0 0 4 1 0 0 1 0 -1 
1 -2 0 -4 1 0 0 7 1 0 0 -3 1 0 1 0 
1 0 1 0 0 3 1 0 1 0 1 0 1 0 1 -1 
1 1 0 3 1 0 0 -3 1 0 0 6 1 0 0 -2 
1 0 0 -3 1 0 0 9 1 0 0 -4 1 0 1 1 
0 3 1 0 0 -2 1 0 0 3 1 1 1 -1 0 4 
1 0 1 0 1 0 1 0 0 2 1 0 0 -5 1 0 
1 0 0 7 1 0 0 2 1 0 0 -9 1 0 1 0 
1 0 0 2 1 0 0 -4 1 0 0 2 1 0 0 -2 
1 0 0 -2 1 0 0 4 1 0 1 0 1 -1 1 0 
0 -4 1 0 0 3 1 0 1 1 0 -4 1 0 0 3 
0 -9 0 5 1 0 0 2 0 -7 1 0 1 0 1 -1 
0 4 1 0 0 -4 1 1 1 0 0 2 1 0 1 0 
0 -2 1 -1 0 -3 1 0 1 0 0 -4 1 0 0 3 
0 -4 1 0 0 3 1 0 0 -10 1 0 1 1 1 -1 
1 -1 0 -3 1 0 1 -1 1 0 0 2 1 0 1 -1 
-1 0 2 3 0 4 1 0 1 1 1 -1 0 -2 1 0 
0 2 1 0 1 1 1 0 0 -3 0 2 1 0 1 1 
0 -4 1 0 0 3 1 0 0 -4 1 0 1 0 1 1 
1 1 0 -2 1 0 1 1 0 -4 1 0 0 4 1 0 
1 1 1 0 1 0 0 3 1 0 1 1 0 -2 1 0 
0 4 1 0 1 1 1 0 1 0 0 6 1 0 0 -2 
0 4 1 0 1 -1 1779 3174 300 MP stroke
0 3 1 0 0 -2 1 0 0 3 1 0 0 -3 1 0 
0 -2 1 0 0 -3 1 0 1 -1 1 0 1 0 0 -2 
1 0 0 3 1 0 0 -4 1 0 1 0 1 1 0 3 
1 -3 1 0 1 0 0 3 1 0 1 -1 0 -3 1 0 
0 -4 1 0 0 -2 1 0 0 3 0 -4 1 0 0 -3 
1 0 0 -2 1 0 0 -2 1 0 1 -3 0 -5 1 0 
1 0 0 -3 1 0 0 -3 1 0 0 -1 0 1 1 2 
0 -4 1 0 0 -3 1 0 0 5 1 0 0 -5 1 1 
0 -5 1 0 1 0 1 0 1 0 0 3 1 1 1 0 
0 3 1 0 1 1 0 7 1 0 0 3 1 0 0 -2 
1 6 1 -2 0 6 1 0 0 23 1 0 1 0 0 3 
1 0 0 8 1 0 0 4 1 0 1 -1 0 4 1 0 
0 -4 1 0 1 -1 1 1 0 -6 1 0 1 0 1 0 
0 -4 1 0 0 -2 1 0 0 -2 1 0 0 -3 1 0 
1 -1 1 -1 1 0 0 -4 1 0 0 2 1 0 1 -1 
0 -3 1 0 1 -1 0 3 1 0 0 5 1 0 0 -5 
1 0 0 4 1 1 0 4 1 0 0 -4 1 0 0 3 
1 0 0 -2 1 0 0 7 1 0 0 -2 1 0 0 -2 
1 0 0 2 1 0 1 1 1 1 0 2 1 0 0 2 
1 0 1 0 0 -6 1 0 0 6 1 0 1 -1 0 -4 
1 0 0 -3 0 2 1 0 0 -5 1 0 1 -1 0 -7 
1 0 0 2 1 0 1 1 0 -4 1 0 0 -8 1 0 
0 4 1 0 0 -2 1 0 1 -1 1 0 0 5 1 0 
0 -12 1 0 0 4 1 0 1 0 0 -2 1 0 1 1 
0 3 1 0 0 -3 1 0 0 7 1 0 0 4 1 0 
0 -3 1 0 0 8 1 0 0 -4 1 0 0 10 1 0 
1 0 0 8 1 0 0 -7 1 0 0 2 1 0 1 1 
1 -1 1 2 1 -1 1 1 0 -4 1 0 1 0 0 7 
1 0 0 -5 1 0 1 1 0 3 1 0 1 0 0 2 
1 -1 1 0 1 0 1 1 1 -1 1 1 0 -2 1 0 
0 5 1 0 0 4 1 0 0 -2 1 0 1 0 1 0 
0 -6 1 0 1 1 0 2 1 0 0 4 1 0 0 5 
1 -5 0 8 1 0 0 -9 1 0 0 -5 1 0 0 3 
1 0 0 -4 1 0 0 -3 1 0 1 0 0 2 1 1 
0 -3 1 0 0 -2 1 0 0 2 1 0 1 0 0 2 
1 0 1 0 1 -2 0 3 1 0 0 1 0 -1 1 6 
1 0 1 1 0 -6 1 0 0 2 1 0 0 -3 1 0 
1 -1 0 -2 1 0 1601 3166 300 MP stroke
0 -4 1 -1 0 -2 0 3 1 0 0 -5 1 0 0 -2 
1 0 0 3 1 1 0 -5 1 0 1 0 0 4 1 0 
0 -4 1 0 0 7 0 -4 1 0 0 -2 1 0 1 -1 
0 5 1 0 1 -1 0 -4 1 0 0 -3 1 0 0 -3 
1 0 0 3 1 0 1 0 1 0 0 -3 1 0 1 -1 
0 -3 1 0 0 2 1 0 0 -4 1 0 0 -6 1 0 
0 3 1 0 0 -6 1 0 0 3 1 0 0 -3 1 0 
0 5 1 0 1 1 -1 0 2 -4 0 -3 1 0 1 1 
1 0 0 7 1 0 1 -1 0 5 1 0 0 2 1 0 
0 2 1 0 0 7 1 0 0 -5 1 0 0 9 1 0 
0 3 1 0 1 0 0 10 1 0 0 -6 1 0 0 10 
1 0 0 -8 1 0 0 4 1 0 0 -2 1 0 0 2 
1 7 0 -4 1 0 1 0 1 0 0 -2 1 0 1 0 
0 3 1 0 0 -3 1 0 0 -3 1 0 0 -4 1 0 
0 -4 1 0 0 3 1 0 0 -6 1 -1 1 -1 0 -6 
1 0 0 -3 1 -1 0 -4 1 0 0 -1 0 1 1 -5 
1 0 1 1 0 -6 1 0 0 10 1 0 0 -7 1 0 
0 6 1 0 0 -7 1 3 0 5 1 0 1 0 0 3 
1 0 0 5 0 -3 1 0 0 2 1 0 0 4 1 0 
0 3 1 0 0 -3 0 3 1 0 0 -4 1 0 1 1 
1 0 0 -6 1 0 0 6 1 0 1 1 1 -1 1 0 
1 1 1 -1 1 -1 0 6 1 0 0 -2 1 0 1 1 
0 7 1 0 0 -6 1 0 1 0 0 6 1 0 0 5 
1 0 0 -4 1 0 1 0 1 0 0 -2 1 0 0 4 
1 -3 1 -3 0 -3 1 0 1 0 1 -1 1 0 0 -3 
1 0 0 -7 1 0 0 7 0 -11 1 0 1 0 0 -2 
1 0 0 -2 1 0 0 -2 1 0 0 -6 1 0 0 6 
1 0 0 -3 1 0 1 0 0 -2 1 0 0 3 1 0 
0 -3 1 0 0 9 1 0 0 -4 1 0 0 2 1 0 
0 7 1 1 0 3 1 0 0 6 1 0 1 1 0 6 
1 4 0 2 1 0 0 5 1 0 0 2 1 0 1 0 
0 4 1 0 0 -4 0 3 1 0 1 0 0 -4 1 0 
1 -1 0 -6 1 0 0 -3 1 0 0 -8 1 0 0 -3 
1 0 0 -2 1 0 0 -6 1 0 0 -3 1 0 1 0 
0 2 0 -7 1 0 0 5 1 0 0 -2 0 5 1 0 
0 -3 1 0 0 -2 1 0 0 4 1 0 0 -2 1 0 
0 2 1 0 1 0 1 0 0 7 1 0 0 -3 1 1 
0 7 1 0 0 -4 1435 3178 300 MP stroke
1 0 0 4 1 0 1 0 1 0 1 1 0 5 0 -3 
1 0 0 -3 1 0 1 0 1 0 0 4 1 0 1 2 
1 -6 0 3 1 0 0 5 1 0 0 -5 1 0 1 1 
0 -3 1 0 1 0 0 3 1 0 0 -5 1 0 0 -2 
1 0 1 0 1 0 1 -1 0 4 1 0 1 1 0 5 
1 0 1 0 0 -2 1 0 0 3 1 0 1 1 1 0 
0 3 1 0 0 3 2 5 0 2 1 0 0 5 1 0 
1 0 1 0 1 0 1 -1 0 -2 1 0 0 -5 1 0 
1 1 0 -4 1 -1 0 -3 1 0 0 -3 1 0 0 -1 
0 1 1 -4 0 2 1 0 0 -2 1 0 0 -5 1 0 
0 1 0 -1 1 4 0 -3 1 0 1 0 1 1 0 -2 
1 0 0 1 0 -1 1 -2 0 -2 1 0 0 -2 1 0 
0 3 1 0 1 0 0 -6 0 3 1 0 0 -7 1 0 
1 -1 1 1 1 -1 1 -1 0 2 1 -5 1 -1 0 2 
1 0 0 2 1 0 0 -4 1 0 1 0 1 0 1 1 
0 3 1 0 0 -3 1 0 0 -3 1 0 0 4 1 0 
0 -2 1 4 0 -3 1 0 0 3 1 0 1 0 0 4 
1 0 1 0 1 0 0 4 1 0 0 11 1 0 0 -7 
1 0 1 1 0 4 1 0 1 0 0 6 1 0 0 -4 
1 0 0 4 1 0 1 -1 0 2 1 -1 1 -1 1 1 
1 0 1 -1 0 -3 1 0 0 -2 1 5 0 -5 1 0 
0 3 1 0 0 4 1 0 0 -2 1 0 1 0 0 -5 
0 3 1 0 1 -1 0 -3 1 0 0 -8 1 0 0 7 
1 0 0 -7 1 0 0 -3 1 0 0 -3 1 0 0 3 
1 0 1 1 0 2 1 0 0 -7 0 3 1 0 1 1 
1 0 0 -1 0 1 1 4 0 2 1 0 0 -3 1 0 
0 3 1 0 0 -3 1 0 0 4 1 0 0 4 1 0 
0 -4 1 0 0 8 1 0 0 -3 1 0 0 2 1 0 
0 0 2 5 1 0 0 2 1 0 0 -3 0 3 1 0 
1 0 1 0 0 -4 0 4 1 0 1 0 1 0 0 2 
1 0 0 -5 1 0 1 1 0 2 1 0 1 0 0 2 
1 0 0 -1 0 1 1 3 0 -5 1 0 0 4 1 0 
0 -2 1 0 1 -1 1 1 1 -1 -1 0 2 -4 1 1 
1 0 1 0 0 3 1 0 0 -5 1 0 1 1 0 -3 
1 0 0 2 1 0 0 5 1 0 0 -4 1 0 1 -3 
0 4 1 0 0 -2 1 0 0 2 1 0 1 0 1 0 
0 2 1 0 0 -2 1 0 0 -4 1 0 0 4 0 -4 
1 0 0 3 1 0 1257 3167 300 MP stroke
1 1 0 -8 1 -1 1 0 0 -2 0 3 1 0 0 -5 
1 0 0 -2 1 0 1 -1 1 1 0 3 0 -7 1 0 
1 0 0 3 1 0 0 -4 1 0 1 1 0 -3 1 0 
0 3 1 0 0 -4 1 0 1 -1 0 5 1 0 0 -5 
1 1 0 1 0 -1 1 4 0 -4 1 1 0 6 1 0 
1 0 0 -4 1 0 0 4 1 1 0 2 1 0 0 4 
1 0 1 1 1 -1 0 2 1 0 0 -2 1 0 0 4 
1 0 0 4 1 0 1 0 0 -4 1 0 0 3 1 0 
1 0 0 2 1 0 0 10 1 0 0 -3 1 0 0 6 
1 0 0 -6 1 0 0 -9 1 0 0 -2 1 -4 0 6 
1 0 0 -20 1 0 0 -2 1 0 0 -2 0 3 1 0 
0 -4 1 1 0 -9 1 0 1 0 1 0 0 -7 1 0 
0 5 1 0 0 -4 1 0 0 2 1 0 0 8 1 0 
0 4 1 0 0 -6 1 0 0 9 1 0 0 -2 1 0 
0 18 1 1 0 2 1 0 1 0 1 1 0 24 1 0 
0 -5 1 0 0 6 1 0 0 -4 1 0 0 7 0 -2 
1 0 0 3 1 -1 0 1 0 -1 1 -7 0 -3 1 1 
1 -1 1 0 0 -19 1 -2 0 -5 1 0 0 -4 1 0 
0 7 1 0 0 -15 1 0 0 -4 1 0 0 -5 0 2 
1 0 0 -2 1 0 1 0 0 -4 1 0 1 -1 0 3 
1 0 0 -6 1 0 0 2 1 0 0 -2 1 0 0 4 
1 0 1 0 1 -1 1 1 -1 0 2 0 0 6 1 0 
0 3 1 0 1 0 0 5 1 -3 0 3 1 0 0 4 
1 0 0 4 1 0 0 -3 1 0 0 3 1 0 0 2 
1 0 0 5 1 0 1 0 0 7 1 0 1 1 0 3 
1 0 0 1 0 -1 1 3 0 3 1 0 0 5 1 0 
1 -1 0 13 1 0 0 -4 1 0 0 -8 0 4 1 0 
1 0 0 4 1 0 0 -8 1 -3 1 0 0 3 1 0 
0 -3 1 -1 0 -6 1 0 0 -2 1 0 0 -4 1 0 
1 1 1 1 0 -4 1 0 0 -3 1 0 1 -1 0 4 
1 0 0 -4 1 0 0 -1 0 1 1 -3 0 2 1 0 
0 2 0 -4 1 0 0 3 1 0 0 -4 1 0 0 5 
1 0 0 -2 1 0 0 -2 1 0 1 -1 0 3 1 0 
0 -3 1 -3 0 4 1 0 0 2 1 0 0 -6 1 0 
1 -1 0 4 1 0 0 3 1 0 0 -3 1 0 0 -4 
1 0 0 -3 1 4 0 -4 1 0 1 -1 1 1 0 -4 
1 -1 1 0 0 -2 1 0 0 2 1 0 0 -4 1 0 
1 1 1 0 1 0 1093 3193 300 MP stroke
1 -1 1 0 1 0 1 1 1 1 0 -2 1 0 0 4 
1 0 0 0 2 0 1 0 0 5 1 0 0 -3 1 0 
0 6 1 0 0 -4 1 0 0 5 1 0 1 -1 0 1 
0 -1 1 5 1 0 0 4 1 0 0 3 1 0 0 2 
1 0 0 4 1 0 0 7 1 0 0 -9 1 0 0 4 
1 -4 0 4 1 0 0 -5 1 0 1 1 0 -2 1 0 
1 0 0 -2 1 0 0 -3 1 0 0 2 1 1 1 -5 
1 0 0 5 1 0 0 -8 1 0 0 3 1 0 0 1 
0 -1 1 -3 0 3 0 -3 1 0 1 1 1 -1 1 0 
0 -4 1 0 0 7 0 -6 1 0 0 7 1 0 0 -4 
1 1 1 -1 0 4 1 0 1 -1 1 0 1 1 0 6 
2 -5 0 3 1 0 0 3 1 0 0 10 1 0 0 -5 
1 0 0 -4 1 0 1 -1 1 1 0 -4 1 0 1 -1 
0 5 1 0 0 -2 1 0 0 2 1 -1 1 -1 0 -2 
1 0 0 -3 1 0 1 0 1 0 0 2 0 -2 1 0 
1 0 1 -1 0 7 1 0 0 -4 1 1 1 0 1 0 
0 4 1 0 0 -4 1 0 1 0 0 4 1 0 0 -2 
1 2 1 0 0 6 1 0 0 -2 1 -5 0 3 1 0 
0 4 1 0 0 -2 1 0 0 -2 1 2 1 0 0 -2 
1 0 1 1 0 -4 1 0 0 5 1 0 0 -2 1 0 
0 -4 1 0 0 9 1 0 0 -5 1 -4 1 0 1 0 
1 0 0 -3 1 0 0 -4 1 0 0 -4 1 0 0 -2 
1 0 1 -1 0 -4 1 0 1 0 0 -2 1 0 1 -1 
1 -1 0 5 1 0 0 -3 1 0 0 -2 1 0 1 1 
0 -5 1 0 0 -2 1 0 0 -4 1 0 0 -3 1 0 
0 2 1 0 0 -6 1 0 1 0 0 -5 1 0 1 0 
0 -2 1 0 0 -2 1 0 1 1 0 -6 1 0 0 5 
1 0 0 -3 1 0 1 1 0 2 1 0 0 1 0 -1 
1 4 1 1 0 6 1 0 0 2 1 0 0 4 1 0 
0 -4 0 4 1 0 0 3 1 0 0 2 1 0 1 1 
0 7 1 0 0 -2 1 0 0 6 1 3 0 -3 1 0 
0 7 1 0 1 0 0 4 1 0 1 1 1 0 0 3 
1 0 1 -1 0 2 1 0 1 0 0 -2 1 0 1 0 
1 0 0 -5 1 0 0 5 1 0 0 -5 1 0 0 2 
1 0 0 -3 1 0 1 0 0 0 2 0 0 -3 1 0 
1 -1 0 7 1 -7 1 0 1 1 1 0 1 -1 1 0 
1 1 0 6 1 0 1 0 0 5 1 3 0 -5 1 0 
0 2 1 0 1 0 912 3166 300 MP stroke
0 2 1 0 0 -2 1 0 0 -2 1 2 0 2 1 0 
1 0 0 -6 1 0 0 -5 1 0 0 2 1 0 0 -4 
1 0 1 0 1 -1 1 -1 1 1 1 1 0 -4 1 0 
0 -3 0 2 1 0 0 -2 1 0 0 -1 0 1 1 6 
0 -8 1 0 0 2 1 0 0 2 1 0 0 3 1 0 
0 2 1 0 0 4 1 0 1 0 0 5 1 0 1 0 
0 2 1 0 0 6 1 0 1 1 1 0 0 6 1 0 
0 -2 1 0 0 3 0 -3 1 0 0 -2 1 0 0 2 
1 0 1 -1 1 1 1 -1 0 -4 1 0 1 1 0 3 
1 0 1 1 0 -5 1 0 1 1 0 2 1 0 0 -5 
1 0 0 2 1 0 0 1 0 -1 1 -2 0 2 1 0 
0 -4 1 0 0 -2 1 0 1 0 0 4 1 0 1 -1 
1 1 0 -2 1 0 0 -2 1 0 0 6 1 0 0 -6 
1 0 1 -1 -1 0 2 -1 0 2 1 0 0 -4 1 0 
1 0 0 -5 1 0 1 0 1 0 1 1 0 -4 1 0 
0 5 1 0 0 -8 1 0 0 3 2 0 0 -3 1 0 
0 3 1 1 1 3 -1 0 2 0 1 1 0 3 0 -3 
1 0 0 6 1 0 0 1 0 -1 1 -11 0 7 1 0 
0 -2 1 0 0 2 1 0 1 1 1 0 0 -4 0 7 
1 0 0 -3 1 0 0 6 1 0 0 -3 1 0 0 3 
1 0 0 -2 1 0 0 -2 1 0 0 4 1 0 1 1 
1 -1 0 4 1 -4 0 -3 1 0 1 1 1 -1 1 -1 
0 1 0 -1 1 -2 0 -3 1 0 0 -2 1 0 1 0 
0 -2 1 0 0 -2 1 0 0 2 1 -8 1 4 1 0 
1 -1 0 4 1 0 0 -3 1 0 0 2 1 0 0 -2 
1 0 1 0 0 7 1 -1 1 0 0 -3 1 0 1 1 
1 -1 0 5 1 0 1 -1 1 1 0 -4 1 0 0 4 
1 0 1 0 0 2 1 0 0 5 0 -4 1 0 0 2 
1 0 0 -3 1 0 1 1 0 -4 1 0 1 0 0 -5 
1 0 0 -2 1 -1 0 -3 1 0 1 -1 0 -3 1 1 
0 -2 1 0 0 4 1 0 0 -2 1 0 0 -5 1 1 
1 0 0 2 1 0 0 -2 1 0 1 -1 0 -6 1 0 
0 5 1 0 1 0 1 1 1 -1 0 1 0 -1 1 -3 
1 1 1 0 0 2 1 0 1 1 0 -3 1 0 0 6 
1 0 0 -2 0 3 1 0 1 -1 1 1 0 4 1 0 
1 -1 0 5 1 0 0 -3 0 5 1 0 0 -6 1 0 
0 7 1 0 1 0 1 0 1 0 1 1 1 3 -1 0 
2 1 1 -1 1 0 735 3174 300 MP stroke
0 6 1 0 0 -6 1 0 0 -3 1 0 0 4 1 0 
1 -1 0 -4 1 0 1 -1 1 0 0 -3 1 0 0 -2 
1 0 1 -1 1 0 0 -5 1 0 1 0 1 1 0 -4 
1 0 0 4 1 -1 1 0 0 5 1 0 0 -3 1 0 
0 2 1 0 0 -4 1 0 1 0 0 4 1 0 0 -3 
1 0 1 0 0 4 1 3 0 -4 1 0 0 4 1 0 
1 0 0 -2 1 0 0 5 1 0 1 0 1 0 0 -2 
1 0 0 7 1 0 0 -3 699 3177 61 MP stroke
DA
6 w
/c9 { 1.000000 0.000000 0.000000 sr} bdef
c9
0 3 1 1 0 2 1 1 0 2 1 1 0 2 1 1 
0 -3 1 -1 0 3 1 1 0 2 0 -1 2 -2 1 0 
-1 0 2 0 0 2 1 1 0 -2 2 -2 0 2 1 1 
1 -1 1 0 1 1 1 -1 1 0 1 1 1 1 1 1 
1 1 0 -3 1 -1 0 -2 1 1 0 4 1 1 1 1 
-1 0 2 -2 0 -2 2 -2 1 1 0 2 1 -1 0 -2 
1 -1 1 4 -1 0 2 -2 0 -2 1 1 0 2 1 1 
1 -1 0 0 2 -2 0 -2 1 1 0 5 2 0 0 -2 
1 -1 1 1 1 0 1 -1 0 -1 1 -1 1 1 1 1 
-1 0 2 0 0 2 1 1 0 1 2 2 0 -6 1 -1 
0 2 1 1 1 2 -1 0 2 -2 1 0 1 1 -1 0 
2 -2 1 0 -1 0 2 2 0 -2 1 -1 1 -1 0 3 
1 1 0 -3 1 -1 0 -1 0 2 1 1 0 1 0 -3 
1 -1 0 -2 0 1 1 1 0 1 1 1 0 -2 1 1 
0 4 1 1 0 -1 2 -2 1 0 -1 0 2 0 0 -3 
1 -1 0 5 1 1 0 3 1 1 0 -2 1 -1 1 0 
1 -1 1 -1 1 1 1 -1 0 -1 2 0 1 0 -1 0 
2 2 0 2 1 -1 1 -1 1 1 0 -1 2 -2 0 4 
1 1 0 1 0 -1 1 -1 0 -3 1 -1 0 2 1 1 
0 2 0 -1 2 0 0 2 0 -1 2 0 1 1 -1 0 
2 -2 1 1 0 -3 1 -1 0 2 1 1 0 3 1 1 
0 -2 2 0 0 1 0 -1 1 -1 0 -4 1 -1 0 -1 
1 -1 0 1 1 1 0 4 1 1 0 -2 1 -1 1 -1 
1 1 1 -1 0 1 2 0 0 -1 2 0 1 0 1 -1 
0 -1 0 1 2 2 0 -3 2 0 1 1 1 1 1 -1 
1 0 -1 0 2 2 1 1 1 0 1 1 -1 0 2 -2 
1 -1 1 1 0 1 2 2 0 1 0 -1 1 -1 1 -2 
-1 0 2 2 1 1 1 0 1 0 -1 0 2 -2 1 1 
0 2 1 1 0 1 0 -2 1 -1 0 -2 1 1 0 2 
1 -1 1 -3 -1 0 2 2 0 1 1 1 1 0 -1 0 
2 -2 1 -1 1 1 1 0 1 0 1 0 0 2 1 1 
0 1 1 -1 0 -4 1 -1 0 -1 0 1 1 1 0 1 
1 1 0 1 0 -2 2 0 1 2 -1 0 2 -2 1 -2 
-1 0 2 2 1 0 1 1 -1 0 2 -2 0 2 1 1 
1 -1 0 2 1 1 0 -3 1 -1 0 -3 1 -1 0 3 
2 2 1 -1 1 -1 1 -1 1 -1 -1 0 2 2 1 -1 
1 0 0 2 2 0 1 -2 -1 0 2 2 0 -1 2 0 
1 2 -1 0 2 -2 2114 3177 300 MP stroke
0 -1 1 -1 1 1 1 1 1 -1 1 1 0 1 0 -1 
1 -1 0 -2 1 -1 0 3 1 1 1 -1 1 -1 1 -1 
-1 0 2 2 0 -1 1 -1 1 0 1 1 -1 0 2 0 
1 1 -1 0 2 -2 1 0 1 -2 -1 0 2 2 0 1 
0 -1 1 -1 1 -1 -1 0 2 2 1 -1 0 -2 1 1 
1 2 -1 0 2 -2 1 -2 -1 0 2 2 1 -1 0 -3 
1 -1 0 -1 0 3 1 1 0 3 1 1 1 -1 1 -1 
0 2 0 -1 2 0 1 1 1 -3 -1 0 2 2 0 -5 
1 -1 0 -2 0 1 1 1 0 3 2 2 1 -1 0 -3 
1 1 0 5 1 1 0 -2 2 -2 0 3 1 1 1 -1 
1 1 0 1 0 -2 1 -1 0 2 1 1 0 2 1 -1 
0 -2 1 -1 0 1 2 0 0 -4 1 -1 1 2 -1 0 
2 -2 1 -1 1 0 0 4 1 1 0 4 1 1 1 1 
0 1 0 -2 2 -2 0 2 0 -1 1 -1 0 -10 1 -1 
0 6 1 1 0 3 1 1 0 -2 2 0 1 0 0 -1 
0 2 1 1 0 2 1 1 0 -2 1 -1 1 -1 0 -4 
1 -1 0 2 1 1 0 2 1 1 0 -6 2 0 0 2 
1 1 1 1 1 0 -1 0 2 2 1 0 0 -2 1 -1 
0 3 1 1 1 0 0 2 2 2 1 1 0 -4 1 -1 
0 -3 0 1 1 1 0 4 1 1 1 -2 -1 0 2 2 
1 0 -1 0 2 2 1 -5 -1 0 2 2 0 -2 2 -2 
0 2 2 0 0 -1 2 -2 1 0 1 0 1 0 1 -1 
-1 0 2 2 1 -1 0 -1 0 1 2 2 1 1 1 -1 
1 0 -1 0 2 -2 1 1 0 1 2 0 1 0 1 -1 
0 -2 1 1 1 1 1 0 1 -1 1 0 -1 0 2 2 
1 1 1 0 -1 0 2 -2 1 0 -1 0 2 0 1 -1 
1 0 1 1 1 -1 -1 0 2 2 0 -1 2 -2 1 -1 
0 -3 2 0 0 2 1 -1 1 -1 1 1 1 0 1 0 
1 1 1 1 1 -1 1 -1 1 1 0 -1 2 0 0 2 
1 1 0 -2 1 -1 1 0 0 1 2 2 1 -1 0 -2 
1 1 1 0 1 0 1 -1 1 1 0 -2 2 -2 0 2 
2 2 1 -1 0 -1 0 2 1 1 0 1 0 -1 1 -1 
0 -1 0 1 1 1 0 3 0 -1 1 -1 0 -4 1 -1 
0 3 1 1 1 1 -1 0 2 -2 0 -4 1 -1 0 2 
1 1 0 4 1 1 0 -1 1 -1 0 -2 0 1 2 2 
1 -1 1 0 -1 0 2 -2 1 0 0 -2 1 -1 1 0 
0 4 1 1 0 2 1 -1 0 -2 1 -1 1 1 0 1 
1 1 0 1 2 2 1910 3176 300 MP stroke
0 -3 1 -1 0 2 1 1 0 -4 1 -1 0 5 1 1 
0 1 0 -2 1 -1 0 -1 0 1 1 1 0 3 1 -1 
0 -4 1 -1 1 -1 0 2 1 1 0 3 1 1 0 1 
2 0 0 -4 2 -2 0 -3 1 -1 0 -2 0 2 1 1 
0 3 1 -1 0 -2 1 1 0 4 2 2 0 -2 1 -1 
1 -2 -1 0 2 2 0 3 1 1 0 -2 2 0 1 0 
0 -2 1 -1 1 -1 0 3 2 0 0 -1 1 -1 0 4 
2 0 0 -4 1 -1 0 2 1 1 0 1 1 1 1 -1 
1 2 -1 0 2 -2 1 -1 -1 0 2 2 0 -6 2 0 
0 2 1 1 0 1 0 -1 2 -2 0 -1 0 1 2 0 
1 -1 0 3 1 1 1 -1 0 -1 0 1 2 0 0 -3 
1 -1 0 4 1 1 0 2 0 -1 2 -2 1 1 1 1 
0 -2 1 -1 1 -1 -1 0 2 2 1 -1 1 -1 1 1 
1 0 1 1 1 0 1 1 1 1 1 -1 1 -1 1 -1 
1 -1 1 0 0 1 2 2 0 -1 2 -2 1 2 -1 0 
2 -2 1 -1 1 1 1 0 1 1 1 2 -1 0 2 -2 
0 -1 1 1 0 1 0 -1 2 -2 1 1 1 0 1 0 
1 0 1 1 1 1 1 0 1 0 1 -1 1 1 1 2 
-1 0 2 -2 1 0 1 0 -1 0 2 2 0 4 1 1 
1 -1 0 -5 1 -1 1 -1 0 2 2 2 1 0 1 0 
1 -1 0 2 2 0 0 1 2 2 1 -1 1 -1 0 -1 
2 0 0 2 1 1 0 -3 2 0 1 2 -1 0 2 -2 
1 1 1 0 0 -1 0 1 1 1 0 2 1 -1 0 -2 
1 -1 0 4 1 1 0 -2 1 -1 0 -3 1 -1 1 1 
1 2 -1 0 2 -2 1 -1 1 1 1 1 1 -1 0 -3 
1 -1 1 1 1 -1 1 2 -1 0 2 -2 0 2 2 2 
1 0 -1 0 2 -2 0 -3 1 -1 0 3 2 0 0 -3 
1 -1 0 3 1 1 1 3 -1 0 2 -2 0 2 1 1 
0 -1 1 -1 1 -2 -1 0 2 2 1 1 0 4 1 1 
0 -1 2 -2 1 1 1 2 -1 0 2 -2 0 -2 1 -1 
1 -1 1 0 -1 0 2 0 1 1 0 -2 1 -1 1 -1 
1 0 -1 0 2 -2 0 1 2 0 1 -1 1 0 -1 0 
2 2 0 2 1 1 1 0 1 1 -1 0 2 -2 0 2 
1 1 1 1 1 0 -1 0 2 2 1 0 1 1 0 1 
0 -1 1 -1 0 -3 1 1 0 7 1 1 0 -2 1 -1 
1 -1 0 -2 1 -1 0 -1 0 2 1 1 0 1 0 -1 
1 -1 0 -2 1 -1 1 1 1 1 -1 0 2 0 0 2 
1 1 0 -4 1 -1 1701 3174 300 MP stroke
1 1 -1 0 2 -2 0 -2 1 -1 0 1 2 2 1 -1 
1 1 0 -1 2 -2 1 2 -1 0 2 -2 1 1 0 -2 
2 0 1 1 1 -1 1 0 1 1 1 0 1 0 -1 0 
2 -2 1 1 0 1 1 -3 -1 0 2 2 0 3 2 0 
1 0 0 1 0 -2 2 -2 0 4 1 1 1 0 1 0 
0 -2 1 -1 1 0 1 1 1 -1 -1 0 2 2 0 -1 
1 -1 0 -3 1 -1 0 2 1 1 1 -1 0 -1 0 1 
2 2 0 -3 1 -1 0 -1 0 1 2 2 1 -1 0 -3 
2 0 0 2 1 1 0 -3 1 -1 0 4 1 1 1 -1 
1 0 1 -1 0 -1 0 1 2 2 1 0 0 1 2 0 
0 -2 1 -1 0 5 2 0 0 -5 1 -1 0 3 1 1 
0 3 1 1 0 -2 1 -1 1 -1 -1 0 2 0 0 -3 
1 -1 1 1 0 2 1 1 1 -1 0 -1 0 1 1 1 
0 2 1 1 0 2 1 1 0 -3 1 -1 0 -3 1 -1 
1 1 0 -1 0 1 2 2 0 3 1 1 0 -3 1 -1 
0 -2 2 -2 1 3 -1 0 2 -2 1 -2 -1 0 2 2 
1 1 1 0 1 1 1 1 -1 0 2 -2 0 2 2 0 
0 -2 1 -1 1 -1 0 2 1 1 1 1 0 -2 2 0 
0 3 2 0 0 -5 2 0 0 -1 2 0 0 2 1 1 
1 0 0 -2 1 -1 1 1 1 -1 1 -1 0 2 1 1 
0 -2 1 -1 1 1 0 2 1 1 1 0 0 -1 0 1 
2 0 0 -4 1 1 1 7 -1 0 2 -2 1 -1 0 4 
1 1 0 1 0 -2 1 -1 0 -2 0 1 1 1 1 3 
-1 0 2 -2 0 -1 1 -1 0 1 2 2 0 -3 1 1 
0 4 1 1 0 1 0 -2 1 -1 0 -1 1 1 1 -1 
1 1 1 -1 0 -2 0 1 2 2 0 -3 1 -1 1 3 
-1 0 2 -2 1 -1 1 -2 -1 0 2 2 1 1 0 -2 
1 -1 1 0 -1 0 2 0 0 -1 2 -2 1 0 1 2 
-1 0 2 -2 0 1 2 2 1 1 1 1 0 1 2 0 
1 -1 1 0 -1 0 2 -2 1 2 -1 0 2 -2 0 2 
1 1 0 2 1 -1 1 1 0 1 0 -1 1 -1 0 -3 
1 1 0 5 1 1 0 -4 1 -1 0 -2 1 -1 0 5 
1 1 0 -3 1 -1 0 4 1 1 0 2 0 -1 2 -2 
1 1 1 1 1 1 0 -3 1 -1 0 2 2 2 0 1 
0 -1 2 -2 1 1 1 -1 1 -2 -1 0 2 2 1 -1 
0 -3 1 -1 1 -3 -1 0 2 2 0 -2 1 -1 0 -1 
0 1 1 1 1 -1 1 -1 -1 0 2 2 1 -1 0 -2 
1 1 0 2 1 1 1496 3178 300 MP stroke
0 -3 1 -1 0 4 1 1 1 1 1 1 0 3 2 2 
1 0 1 1 1 1 -1 0 2 -2 1 -1 1 1 0 3 
1 1 0 -5 1 -1 0 -1 0 3 1 1 0 2 0 -2 
1 -1 0 -2 2 -2 0 -2 1 -1 0 2 1 1 0 -1 
1 -1 0 -2 1 -1 0 1 1 1 1 1 0 2 1 1 
0 -3 1 -1 0 -1 0 2 2 2 1 1 0 1 1 -1 
0 -2 1 -1 0 3 1 1 1 1 -1 0 2 -2 0 2 
2 2 0 -4 2 0 0 5 1 1 0 2 0 -1 1 -1 
1 -6 -1 0 2 2 0 -3 1 -1 0 2 1 1 0 1 
0 -1 2 -2 1 1 1 1 1 -1 1 -1 1 0 1 1 
1 0 1 1 -1 0 2 -2 1 1 -1 0 2 -2 0 -3 
2 0 0 2 1 1 0 1 2 2 1 1 1 0 1 1 
0 3 1 1 1 1 0 -3 2 -2 1 1 0 3 1 1 
0 2 1 1 0 -3 1 -1 0 3 1 1 0 2 1 -1 
0 -5 1 -1 0 -1 0 1 1 1 0 1 1 1 0 -5 
1 -1 0 -2 0 1 1 1 0 6 1 1 0 1 0 -2 
2 -2 1 -1 0 -3 1 -1 0 -7 1 -1 0 -1 0 1 
1 1 0 15 1 1 0 3 0 -6 1 -1 0 -13 1 -1 
0 4 1 1 0 2 0 -2 1 -1 0 -7 1 -1 0 8 
1 1 0 1 0 -3 1 -1 0 -1 0 2 1 1 0 2 
1 1 0 -4 1 -1 0 5 1 1 0 3 1 1 0 -6 
1 -1 0 -2 0 1 1 1 0 4 0 -1 1 -1 0 -6 
1 -1 0 13 1 1 0 -8 1 -1 0 -3 0 1 1 1 
0 1 1 1 1 1 1 -1 0 1 2 0 0 -1 1 1 
0 3 1 1 0 -4 2 0 0 4 1 1 0 2 1 -1 
0 -8 1 -1 0 -2 1 1 0 2 1 -1 0 -2 1 -1 
1 0 0 1 0 -1 1 -1 0 -2 1 1 0 6 2 0 
0 2 1 1 1 -1 1 -1 1 0 1 -1 1 1 0 4 
1 1 0 -1 2 -2 0 -3 1 -1 1 -1 1 1 1 -2 
-1 0 2 2 0 1 0 -3 1 -1 0 -3 0 1 1 1 
0 6 1 1 0 -2 2 -2 0 2 1 1 0 -3 1 -1 
0 2 2 2 0 -5 1 -1 0 -4 1 1 0 6 1 1 
0 2 1 -1 0 -3 1 1 0 6 1 -1 0 -7 1 -1 
0 -1 0 6 1 1 0 1 0 -1 2 0 1 1 1 0 
-1 0 2 -2 0 -1 1 -1 0 2 2 0 0 -3 1 -1 
0 5 2 0 1 -1 1 -1 1 -1 1 0 1 1 1 0 
-1 0 2 -2 1 -1 1 1 0 3 1 1 0 -3 1 -1 
0 7 1 1 0 4 1315 3166 300 MP stroke
1 -1 0 -2 1 -1 1 1 1 -1 1 -2 -1 0 2 2 
1 0 1 1 -1 0 2 -2 1 -1 1 -2 -1 0 2 2 
1 0 -1 0 2 -2 1 0 -1 0 2 0 1 -1 0 -1 
0 1 2 2 1 1 1 1 1 -1 1 -1 1 -1 1 0 
1 0 -1 0 2 0 1 -1 1 1 1 -1 1 -1 1 -1 
1 0 0 1 0 -1 1 -1 0 -1 1 -1 0 2 1 1 
1 1 1 0 1 -1 1 0 -1 0 2 -2 0 3 1 1 
0 1 0 -1 1 -1 0 -1 1 -1 1 1 0 2 2 0 
0 -2 1 -1 1 0 1 1 0 1 2 2 1 0 1 -1 
-1 0 2 2 1 0 0 1 0 -1 2 -2 0 3 1 1 
1 1 -1 0 2 -2 0 -1 0 1 2 2 1 0 1 0 
1 0 -1 0 2 0 0 1 1 1 1 0 0 -2 1 1 
0 1 1 1 0 -1 2 0 1 1 -1 0 2 -2 0 -1 
0 2 2 2 0 -2 1 -1 1 1 -1 0 2 -2 0 -2 
1 1 0 4 1 1 0 -3 1 -1 0 -3 0 1 2 2 
0 -2 2 0 0 2 1 1 1 -1 0 -3 1 -1 0 1 
1 1 0 1 0 -2 2 -2 1 1 1 0 1 -1 1 0 
1 0 1 -1 -1 0 2 2 1 -1 0 -3 1 -1 1 1 
1 1 1 0 -1 0 2 2 1 1 1 0 0 2 1 1 
0 -2 1 -1 1 1 1 0 -1 0 2 -2 0 4 1 1 
0 1 0 -1 2 -2 1 1 1 -1 1 0 0 4 1 1 
0 1 1 1 0 -2 1 -1 0 2 1 1 0 -1 1 -1 
0 -2 2 -2 0 5 1 1 0 6 1 -1 0 -5 1 -1 
1 1 1 1 1 1 0 -4 1 -1 0 2 1 1 1 -1 
1 1 0 2 0 -1 2 -2 1 0 -1 0 2 -2 1 -2 
-1 0 2 2 1 0 1 -2 -1 0 2 2 1 -1 0 -2 
1 -1 0 2 2 0 0 -2 1 -1 0 4 1 1 1 -1 
0 -2 1 -1 1 2 -1 0 2 -2 0 -1 0 2 1 1 
0 2 1 -1 0 -2 1 -1 0 -1 0 2 1 1 0 2 
1 1 1 -5 -1 0 2 2 1 1 1 -1 1 0 0 2 
1 1 0 1 0 -2 2 -2 1 1 1 0 -1 0 2 -2 
1 -1 0 3 1 1 1 -2 -1 0 2 2 0 1 1 1 
1 -2 -1 0 2 2 0 1 1 -1 1 -4 -1 0 2 2 
1 1 0 2 1 1 0 -4 1 -1 1 -1 0 3 1 1 
0 -4 1 -1 0 -1 0 2 1 1 0 3 1 -1 0 -3 
1 -1 1 0 1 1 1 -1 0 -4 1 1 0 3 1 1 
0 -2 1 -1 0 -1 0 1 1 1 1 1 -1 0 2 -2 
0 1 2 2 1 -1 1113 3171 300 MP stroke
1 -1 1 -1 1 0 0 3 1 1 1 1 -1 0 2 -2 
0 -3 1 -1 0 -1 1 -1 1 1 0 2 2 2 0 -3 
2 0 0 2 1 1 1 0 1 -1 1 -1 0 -2 2 0 
0 1 0 -1 1 -1 1 -3 -1 0 2 2 0 0 2 2 
0 -2 1 -1 0 1 1 1 0 2 1 -1 0 -3 1 -1 
0 -1 0 1 1 1 0 2 1 1 0 -2 2 0 1 1 
1 -1 1 -1 1 0 1 0 0 2 1 1 0 1 1 1 
0 -3 2 0 1 1 0 1 0 -1 1 1 1 1 1 0 
1 1 1 1 1 -1 0 1 2 0 0 -2 1 1 1 3 
-1 0 2 -2 1 -1 0 2 1 1 0 -1 2 0 1 -1 
0 2 1 1 0 3 1 1 0 -3 1 -1 0 -2 1 -1 
1 0 -1 0 2 0 0 1 1 1 1 -5 -1 0 2 2 
0 2 0 -1 2 -2 1 0 -1 0 2 -2 1 -1 0 2 
1 1 0 -4 2 0 1 1 0 -1 2 -2 1 1 0 -1 
2 -2 1 1 1 -1 -1 0 2 2 1 -1 -1 0 2 2 
1 0 1 -1 -1 0 2 2 0 1 0 -1 1 -1 1 -2 
-1 0 2 2 1 1 1 0 -1 0 2 2 1 3 -1 0 
2 -2 1 0 1 0 -1 0 2 -2 1 1 1 0 1 0 
1 0 1 -1 1 0 -1 0 2 2 1 -1 0 1 2 0 
0 -1 0 1 2 0 1 -4 -1 0 2 2 1 4 -1 0 
2 -2 1 -1 1 -1 1 2 -1 0 2 -2 0 -2 0 1 
1 1 0 1 1 1 1 -1 1 1 1 1 1 0 1 1 
1 0 -1 0 2 -2 1 0 0 -2 2 0 0 2 1 -1 
0 -3 1 -1 0 1 1 1 0 1 1 1 1 0 -1 0 
2 2 0 4 1 1 0 1 0 -6 1 -1 0 -3 1 1 
1 1 -1 0 2 -2 0 2 2 2 1 -1 1 -1 1 0 
-1 0 2 2 1 1 1 0 1 1 1 1 0 2 2 2 
0 -2 0 1 2 2 0 -4 2 0 0 3 1 1 0 -3 
1 -1 1 -2 -1 0 2 0 0 -4 2 -2 1 0 1 -1 
1 0 1 -1 1 0 -1 0 2 2 1 0 1 -1 0 3 
2 2 0 -2 1 -1 0 2 1 1 0 4 1 1 0 -5 
2 -2 1 -1 0 -1 1 1 0 2 1 1 0 2 1 -1 
0 -2 1 -1 1 0 1 0 1 0 -1 0 2 -2 1 1 
1 -1 1 1 1 0 1 -1 1 1 1 0 1 0 1 0 
1 1 1 0 1 1 1 0 0 1 0 -1 2 -2 1 -1 
0 2 1 1 1 0 1 -1 1 1 0 -1 2 0 1 0 
1 -1 1 -1 1 -1 0 -1 0 1 1 1 0 3 0 -1 
2 -2 1 0 1 0 893 3177 300 MP stroke
1 1 1 1 1 0 1 1 -1 0 2 -2 0 -3 1 1 
1 1 0 2 2 2 1 0 1 1 1 -1 1 0 1 1 
1 1 1 1 1 0 1 0 1 -1 1 -1 0 6 1 1 
0 -3 1 -1 0 -1 1 -1 0 4 1 1 0 3 1 -1 
0 -4 1 -1 0 -4 1 -1 0 3 1 1 0 3 1 -1 
0 -4 1 -1 1 0 -1 0 2 0 0 8 1 1 0 2 
0 -3 1 -1 0 -3 0 1 1 1 0 2 0 -1 1 -1 
0 -3 2 -2 0 -5 1 1 0 9 1 1 0 -3 1 -1 
0 -2 1 1 1 0 0 -1 2 0 1 -1 1 -1 -1 0 
2 2 1 0 -1 0 2 -2 0 -2 1 -1 1 1 1 2 
-1 0 2 -2 1 1 1 -1 0 -1 0 1 2 0 1 -1 
1 1 1 -1 1 0 1 0 1 0 1 0 -1 0 2 0 
0 -1 0 1 2 0 1 0 1 1 1 0 1 -1 -1 0 
2 2 1 0 1 -1 0 1 2 2 1 -1 1 -1 1 1 
1 -1 1 0 1 -1 1 0 0 1 0 -2 2 -2 0 1 
2 2 1 -1 1 -1 1 1 1 0 1 -1 1 1 1 1 
1 -1 0 1 2 0 1 0 1 1 1 -2 -1 0 2 2 
1 0 1 0 1 0 1 0 1 0 1 -1 0 1 2 2 
1 -1 0 -2 1 -1 1 1 1 -1 1 1 1 -1 1 0 
1 0 1 -1 1 -1 1 -1 1 1 1 0 1 0 1 0 
1 1 -1 0 2 -2 1 0 1 2 -1 0 2 -2 0 1 
2 2 0 -2 1 -1 1 1 1 1 -1 0 2 -2 1 0 
1 0 1 1 1 0 1 1 1 0 1 1 1 2 -1 0 
2 -2 1 0 1 -1 0 1 2 2 1 -1 0 -2 2 0 
0 2 1 1 1 -3 -1 0 2 2 1 0 1 1 0 -2 
2 0 1 1 1 1 1 -1 1 -1 1 1 1 0 1 0 
1 0 0 1 2 2 1 1 0 -2 2 0 0 2 1 1 
1 -1 0 2 1 1 0 -2 2 -2 1 0 0 2 2 0 
1 -1 1 -1 1 -1 -1 0 2 2 1 0 1 1 1 1 
1 0 0 -1 2 0 1 1 -1 0 2 -2 1 0 1 1 
0 2 699 3169 242 MP stroke
gr

c9
DA
0 sg
 682 3629 mt 
( ) s
2482 2256 mt 
( ) s
SO
1 sg
0 334 1226 0 0 -334 1213 2608 4 MP
PP
-1226 0 0 334 1226 0 0 -334 1213 2608 5 MP stroke
4 w
DO
SO
6 w
0 sg
1213 2608 mt 2439 2608 L
1213 2274 mt 2439 2274 L
1213 2608 mt 1213 2274 L
2439 2608 mt 2439 2274 L
1213 2608 mt 2439 2608 L
1213 2608 mt 1213 2274 L
1213 2608 mt 2439 2608 L
1213 2274 mt 2439 2274 L
1213 2608 mt 1213 2274 L
2439 2608 mt 2439 2274 L
1675 2409 mt 
(Sonar) s
gs 1213 2274 1227 335 rc
14.4 w
355 0 1284 2367 2 MP stroke
gr

14.4 w
1675 2558 mt 
(Scaled PTAM) s
gs 1213 2274 1227 335 rc
DA
6 w
c9
355 0 1284 2514 2 MP stroke
SO
gr

6 w
c9
1 sg
0 1372 1799 0 0 -1372 3066 3586 4 MP
PP
-1799 0 0 1372 1799 0 0 -1372 3066 3586 5 MP stroke
4 w
DO
SO
6 w
0 sg
3066 3586 mt 4865 3586 L
3066 2214 mt 4865 2214 L
3066 3586 mt 3066 2214 L
4865 3586 mt 4865 2214 L
3066 3586 mt 4865 3586 L
3066 3586 mt 3066 2214 L
3066 3586 mt 3066 3568 L
3066 2214 mt 3066 2231 L
3033 3731 mt 
(0) s
3665 3586 mt 3665 3568 L
3665 2214 mt 3665 2231 L
3632 3731 mt 
(1) s
4265 3586 mt 4265 3568 L
4265 2214 mt 4265 2231 L
4232 3731 mt 
(2) s
4865 3586 mt 4865 3568 L
4865 2214 mt 4865 2231 L
4832 3731 mt 
(3) s
4595 3933 mt 
(x 10) s
%%IncludeResource: font Helvetica
/Helvetica /ISOLatin1Encoding 80 FMSR

4821 3859 mt 
(4) s
3066 3586 mt 3083 3586 L
4865 3586 mt 4847 3586 L
%%IncludeResource: font Helvetica
/Helvetica /ISOLatin1Encoding 120 FMSR

2795 3630 mt 
(-0.5) s
3066 2900 mt 3083 2900 L
4865 2900 mt 4847 2900 L
2965 2944 mt 
(0) s
3066 2214 mt 3083 2214 L
4865 2214 mt 4847 2214 L
2865 2258 mt 
(0.5) s
3066 3586 mt 4865 3586 L
3066 2214 mt 4865 2214 L
3066 3586 mt 3066 2214 L
4865 3586 mt 4865 2214 L
gs 3066 2214 1800 1373 rc
c8
0 -2 1 -1 0 -2 0 5 1 -1 0 -1 1 -1 0 2 
0 -4 0 3 1 -1 0 0 0 2 1 1 0 16 0 -2 
1 -1 0 -12 1 1 0 2 1 1 0 2 1 8 0 1 
0 -1 1 -2 0 -1 1 -4 0 1 0 -1 1 1 0 1 
0 -1 1 7 0 -4 2 0 0 7 1 0 1 0 0 -5 
2 -2 0 4 0 -1 1 -1 1 1 0 -3 1 -1 0 -1 
0 1 1 -4 0 7 2 0 0 1 0 -2 0 0 1 -1 
0 -1 0 1 1 -4 0 -4 0 1 1 1 0 2 2 2 
0 -3 1 -1 0 0 0 -1 0 0 1 1 0 5 1 1 
0 -3 1 -5 0 3 1 1 0 1 0 -1 1 -2 0 -3 
0 6 1 -1 1 1 0 1 0 -1 1 3 0 -2 0 1 
1 1 0 -1 0 2 1 -1 0 -8 1 8 0 -1 0 1 
1 -3 0 4 1 1 1 -1 1 0 0 5 1 1 0 -7 
0 1 1 8 0 1 0 -6 2 0 0 3 0 -1 1 -1 
0 -2 1 -1 0 -6 0 2 1 0 0 -2 0 1 1 2 
0 3 0 -5 0 2 1 1 0 1 0 -2 1 -1 0 -7 
1 -1 0 1 0 -4 1 1 1 1 -1 0 2 -2 0 -6 
0 5 1 1 1 0 0 -8 1 -2 0 2 1 -1 0 2 
0 -1 1 -2 0 -6 1 -1 0 5 1 1 0 -6 1 -1 
0 2 0 -4 1 1 0 3 1 -1 0 -3 0 3 1 1 
0 -3 1 -1 0 2 0 -4 0 3 1 -1 0 -5 0 1 
1 1 0 5 1 1 0 -1 0 1 2 2 0 4 1 4 
0 -3 1 -1 0 -4 1 1 0 5 1 1 0 7 1 0 
0 -3 1 1 1 1 0 -1 0 2 1 -1 0 -3 0 1 
2 2 0 3 1 0 1 1 0 -2 1 1 0 -2 0 1 
1 2 0 1 0 -1 1 4 0 6 1 -1 0 3 2 0 
0 -3 1 -1 0 3 1 1 0 3 1 1 0 -5 1 -1 
0 5 2 0 0 -2 0 5 2 0 0 -1 0 1 1 -5 
0 5 1 4 0 -2 0 1 1 1 0 4 1 -1 0 -3 
1 -1 0 -3 0 1 2 2 0 1 0 -2 1 -1 0 4 
1 1 0 3 0 -7 0 1 2 2 0 1 0 -4 1 -1 
0 -6 1 -1 0 4 1 1 0 -2 1 0 0 -4 1 -1 
0 -2 2 -2 0 -5 1 -4 0 2 0 -1 1 -2 1 0 
1 0 0 1 0 -1 1 -5 0 1 0 -1 1 -1 0 -2 
0 2 1 -1 0 2 2 0 0 -3 1 0 1 -1 0 6 
1 1 0 -5 1 -1 0 7 1 -1 0 -7 1 -1 0 4 
1 -1 1 1 0 2 0 -1 1 -2 0 1 1 3 1 1 
0 -1 0 1 1 -3 4540 2902 300 MP stroke
0 -1 0 1 1 -1 1 1 0 6 0 -6 0 5 2 -2 
0 -3 0 1 1 1 1 -1 0 3 0 -1 1 7 0 1 
0 -1 1 1 1 1 0 -7 1 2 0 -5 0 5 2 2 
0 -2 0 1 1 1 0 12 1 1 0 -8 0 3 1 -1 
0 -5 1 -1 0 -1 0 1 1 1 0 1 0 -1 1 -1 
0 1 0 -1 1 -2 0 4 1 0 0 -4 1 -1 0 2 
1 0 0 -3 1 0 0 3 0 -4 0 3 1 1 1 -1 
0 0 0 2 1 1 0 3 0 -1 1 -3 0 -2 0 2 
2 2 1 1 0 -1 1 -4 0 5 1 1 0 2 0 -1 
1 -1 0 2 1 0 0 -5 1 0 0 2 1 0 0 1 
0 -3 0 1 1 1 0 2 0 -2 2 0 0 2 0 -2 
1 -1 0 5 0 -5 1 1 0 7 1 -1 0 -3 1 -1 
0 -1 0 1 1 -4 0 3 1 0 0 5 1 1 0 -6 
1 1 0 -2 0 1 1 1 0 -3 1 -1 0 -4 1 1 
0 2 1 -1 0 -1 0 3 1 -1 0 -5 1 1 0 1 
0 -1 1 3 0 0 2 2 0 4 0 -1 2 -2 0 1 
1 -2 -1 0 2 2 0 4 0 -1 2 -2 0 1 0 -1 
1 -1 0 -6 1 0 0 -1 0 5 1 1 0 2 1 -1 
0 2 0 -3 0 2 1 -1 0 -4 1 1 0 -3 1 0 
0 -1 0 1 2 0 0 10 1 1 0 -10 1 1 0 5 
0 -1 1 -5 1 1 0 -1 0 1 1 -4 0 3 1 1 
1 -4 -1 0 2 2 0 -3 1 -1 0 1 2 0 0 2 
0 -1 2 2 0 2 1 1 0 -1 1 -4 0 1 0 -3 
1 1 0 1 0 -1 1 4 0 -1 0 1 1 -4 0 2 
1 1 0 3 1 1 0 -3 1 -11 0 -4 1 -1 0 -3 
1 1 0 1 0 -5 1 -2 1 -1 0 1 0 -1 1 -2 
0 -3 1 -1 0 2 1 1 0 5 1 -1 0 -3 0 4 
1 1 0 4 0 -2 1 8 0 -1 1 -8 0 -1 0 11 
1 -1 0 -5 0 1 1 1 0 11 0 -1 1 -1 0 -5 
1 11 0 1 1 1 0 2 1 -1 0 -4 1 2 0 10 
1 1 0 -1 0 1 1 -11 0 -1 0 2 1 1 0 -2 
1 -1 0 -2 1 1 0 3 1 1 1 -1 0 -1 1 -9 
0 4 0 -1 1 1 0 -4 1 -1 0 2 2 2 0 -2 
1 0 0 3 0 -4 0 2 1 -1 0 -8 1 -1 1 -8 
-1 0 2 2 0 2 1 7 0 -2 0 1 1 1 0 10 
1 1 0 -9 1 -1 0 -2 0 2 1 -1 0 4 1 1 
0 -3 1 4 0 5 1 1 0 -1 0 1 1 -1 0 -3 
0 1 1 7 0 3 4403 2888 300 MP stroke
1 1 1 1 0 6 1 1 0 -3 1 -1 0 -1 1 -1 
0 5 1 1 0 1 0 -1 1 -1 0 -1 1 -14 0 12 
1 0 0 -20 1 0 0 5 1 -1 0 -9 1 1 0 2 
1 1 0 4 0 -3 1 -1 0 -4 1 0 0 -12 0 2 
1 -1 0 -1 1 1 0 -2 1 2 0 -4 0 4 1 1 
0 4 0 -1 1 -1 0 0 0 -2 0 1 1 -1 0 3 
1 1 0 -1 0 4 1 -1 1 7 -1 0 2 -2 0 10 
1 1 0 2 0 -1 1 -1 0 13 1 1 0 4 1 -1 
0 -2 1 1 1 9 -1 0 2 0 0 9 1 1 0 -4 
1 0 1 1 0 9 1 0 0 -5 1 0 0 2 1 -1 
0 -4 0 1 1 1 0 -2 1 -2 0 -2 0 1 1 3 
0 -1 1 -9 0 5 1 1 0 -4 1 -1 0 1 0 -3 
1 1 0 1 0 -1 2 -2 0 -12 1 0 0 2 1 0 
0 1 0 -1 1 -3 1 1 0 -7 1 1 1 1 1 -1 
0 -3 1 1 0 -2 1 -4 0 -1 1 -1 0 -4 1 0 
0 5 1 1 1 -7 -1 0 2 2 0 -3 1 1 1 3 
-1 0 2 -2 0 1 0 -1 1 -2 0 -1 0 4 1 -1 
0 2 1 1 0 4 1 1 0 1 0 -1 1 3 0 10 
1 1 0 1 0 -6 1 -1 0 -1 0 5 1 1 0 -1 
2 -2 1 1 1 4 -1 0 2 0 0 -1 0 1 1 -4 
1 1 0 1 0 -1 1 -2 0 -2 1 0 1 0 -1 0 
2 -2 0 -3 1 1 0 -1 0 1 1 1 0 -5 1 0 
0 -3 1 -1 0 1 0 -2 1 1 0 1 0 -1 1 -4 
0 1 0 -1 1 -4 0 -1 0 1 1 2 1 -1 1 1 
1 -1 -1 0 2 2 0 1 0 -1 1 3 0 -4 1 -1 
0 -1 0 3 1 -1 0 5 1 1 0 -5 1 -1 0 -4 
0 1 1 1 0 5 0 -2 1 -1 0 -1 0 4 1 1 
0 -1 0 4 1 -4 0 -3 0 1 1 3 0 -2 0 1 
1 1 0 1 0 -1 1 4 0 4 0 -1 1 1 0 1 
0 -2 0 1 1 -1 0 -6 1 -1 0 10 1 1 0 1 
0 -1 1 -5 0 -1 0 4 1 -1 0 1 2 2 0 1 
2 2 0 1 0 -2 0 0 1 1 1 1 0 -3 0 2 
1 -1 0 -1 1 -3 0 2 0 -1 1 1 0 -3 1 0 
0 -1 1 -4 0 -3 1 -1 0 1 0 -2 0 1 1 1 
0 1 0 -3 0 2 1 1 0 -3 1 -1 0 -1 0 3 
1 1 0 -9 0 3 1 -1 0 -12 0 1 1 3 0 1 
0 -2 1 -1 0 -9 1 1 0 3 1 1 0 2 1 0 
0 -4 1 -1 0 -6 4267 2935 300 MP stroke
2 -2 1 -1 0 7 1 1 0 10 1 1 0 5 1 1 
0 4 0 -2 1 -1 0 2 0 -3 0 1 1 1 0 7 
0 -5 1 -1 0 2 0 -4 0 2 1 -1 0 3 0 -1 
1 -1 0 3 1 10 0 2 0 -1 1 -3 0 -1 0 4 
1 -1 0 0 0 -4 1 -1 0 -2 1 -1 0 1 0 -1 
1 8 0 0 0 -1 1 -2 0 3 2 0 0 -2 1 -1 
0 3 2 2 0 -2 1 -1 1 -1 0 0 0 3 1 1 
0 2 0 -2 1 -1 0 -3 0 1 1 2 0 1 0 -2 
1 -1 0 -1 0 5 2 0 0 1 0 -2 1 -1 0 8 
0 -1 1 1 0 -4 0 4 1 1 0 3 1 -1 0 2 
0 -2 1 -1 0 -2 1 1 0 5 1 1 0 1 0 -1 
1 -2 0 4 1 0 0 2 1 -1 0 -2 1 -1 1 1 
1 1 0 -4 1 0 0 2 1 1 0 6 0 -6 0 4 
1 -1 0 -2 0 1 1 1 0 2 0 -1 1 -7 1 -1 
1 -1 0 4 1 1 0 -4 0 1 1 -1 0 3 0 -1 
1 -1 0 1 1 -3 -1 0 2 0 0 -1 0 1 1 3 
1 -1 1 -1 1 -1 0 -5 1 0 0 -1 0 1 1 2 
0 2 1 1 0 -4 1 0 0 4 0 -8 0 4 1 1 
0 3 0 -1 1 -6 1 0 -1 0 2 -2 0 -1 0 4 
1 -1 0 -4 0 1 1 1 1 2 -1 0 2 0 1 1 
0 -1 0 1 1 -1 0 -1 0 1 1 -4 1 0 0 -4 
1 -1 0 2 0 -1 1 -5 0 4 1 1 0 -6 1 -3 
0 -1 0 1 1 1 0 -1 0 1 1 1 0 -1 0 1 
1 -3 0 -3 1 0 0 1 0 -1 1 -1 1 0 0 2 
1 0 1 -2 -1 0 2 2 0 4 1 0 1 2 -1 0 
2 -2 0 -2 1 -1 0 2 1 1 0 2 1 -1 1 1 
0 -5 1 1 0 -4 1 1 0 0 0 -4 1 1 0 7 
1 1 0 1 0 -1 1 -3 0 -2 2 0 1 1 0 -3 
1 0 0 2 1 1 0 -6 1 -1 0 4 1 0 1 1 
-1 0 2 -2 1 1 0 1 0 -1 1 4 0 2 1 0 
0 1 0 -1 1 -2 0 2 0 -4 0 3 1 -1 0 4 
1 1 0 1 0 -1 1 -1 1 -1 0 6 1 1 0 -2 
0 1 1 3 1 -1 0 3 0 -1 1 -1 0 -3 1 1 
0 5 1 1 0 -7 1 -1 0 1 0 -3 0 2 1 1 
0 -2 0 2 2 -2 1 -2 -1 0 2 2 0 1 1 -1 
0 -1 0 1 1 2 0 -5 1 -1 1 1 0 5 1 1 
0 2 0 -1 1 -3 1 2 -1 0 2 -2 0 3 1 1 
0 1 0 -3 1 -1 4127 2902 300 MP stroke
0 -1 1 -4 0 1 0 -5 1 0 0 -1 0 1 1 1 
0 7 0 -4 1 -1 0 -1 1 -4 0 -4 1 1 0 2 
1 1 0 -4 1 -3 1 -9 -1 0 2 2 0 -4 1 -1 
0 -4 0 2 1 1 0 -1 0 1 1 3 0 -1 1 -5 
0 1 0 -3 1 -1 0 3 0 -5 0 3 1 -1 0 -6 
0 1 1 1 0 3 0 -1 1 -5 0 1 0 -1 1 -1 
1 -1 -1 0 2 2 0 4 1 3 1 1 0 -1 0 3 
1 1 1 1 0 -1 0 1 1 6 0 4 1 1 0 -2 
0 1 1 6 1 -1 0 7 1 1 0 23 1 -1 1 -1 
0 4 1 1 0 8 1 -1 0 -1 0 1 1 3 0 -3 
1 -1 0 4 1 -1 1 -4 -1 0 2 0 0 -1 0 1 
1 -1 0 -1 0 1 1 -7 1 0 -1 0 2 -2 0 -5 
1 0 0 -2 1 -1 0 -2 1 1 0 2 0 -1 1 -1 
0 -9 1 -1 0 2 0 -1 1 1 1 1 0 1 0 -4 
0 1 1 1 0 3 0 -1 1 -1 0 -2 1 1 0 2 
0 -2 1 1 0 -2 1 -1 0 3 0 -1 1 1 0 5 
1 -1 0 -7 1 -1 0 7 1 3 0 0 0 1 1 3 
0 1 0 -1 1 -3 0 2 1 4 0 1 0 -2 1 -1 
0 -1 0 7 1 -1 0 -2 1 0 1 -2 -1 0 2 2 
0 3 2 0 0 1 0 -1 1 3 0 2 2 2 0 1 
0 -7 1 -1 0 6 1 0 1 -1 0 1 0 -1 1 -3 
0 -4 1 1 0 1 0 -1 1 -4 0 -2 1 1 0 1 
0 -7 1 1 0 -1 0 2 1 -1 0 2 1 1 0 1 
0 -6 1 -1 0 -10 1 -1 0 4 1 0 0 -2 2 0 
0 3 1 -1 0 3 0 -5 0 4 1 -1 0 -13 1 1 
0 4 2 2 0 1 0 -1 1 -2 0 -1 0 1 1 1 
0 3 1 0 0 -3 1 -1 0 7 1 1 0 3 1 5 
0 -1 1 -4 0 9 1 0 0 1 0 -5 0 1 1 -1 
0 3 1 4 0 3 1 1 0 10 0 -1 1 -1 0 -8 
1 -1 0 2 1 1 0 3 1 1 0 1 0 -1 1 -1 
0 -3 1 3 0 4 1 -1 0 -4 0 1 1 -1 0 -4 
1 1 1 -1 0 7 1 1 0 1 0 -5 1 -1 0 -1 
0 2 1 -1 0 -1 0 1 1 2 1 -1 0 3 0 -2 
1 1 0 1 1 1 0 -3 1 -1 0 -2 0 2 1 1 
0 4 0 0 1 1 0 -2 1 -1 0 -3 1 -4 0 8 
1 1 0 5 1 -1 0 -3 1 1 0 3 1 1 1 -1 
0 -8 1 -1 0 2 1 1 0 2 1 -1 0 4 0 -3 
1 -1 0 6 0 -3 3993 2878 300 MP stroke
1 -5 0 2 1 10 0 3 0 -1 1 -8 0 -5 1 0 
0 1 0 -1 1 3 0 -5 1 -1 0 -6 1 -1 0 3 
1 1 0 4 1 1 0 1 0 -3 1 1 0 -5 1 -1 
0 4 1 1 0 1 1 1 0 1 0 -1 1 -1 1 -1 
1 -1 0 2 1 0 0 -1 0 5 1 1 1 1 0 1 
0 -1 1 -1 0 -6 1 1 0 3 1 1 0 2 0 -3 
1 -1 0 -4 2 -2 0 1 0 -5 1 1 0 -1 0 -1 
1 3 0 -8 1 -1 0 -2 1 1 0 8 1 1 0 1 
0 -1 1 -5 0 -1 0 1 1 1 0 5 1 -1 0 -6 
1 -1 0 6 0 -7 0 3 1 1 0 2 0 -1 1 -1 
0 1 0 -1 1 -1 0 5 1 1 0 -1 1 1 0 -6 
1 -1 0 -3 0 1 1 1 0 1 0 -3 1 -1 0 -3 
0 1 1 2 0 -1 0 1 2 0 0 -4 1 1 0 3 
0 -1 1 -1 0 -8 1 -1 0 2 1 1 0 1 0 -1 
1 -3 0 -10 1 -1 0 5 1 1 0 -5 1 -1 0 -3 
0 1 1 2 0 -2 1 0 0 7 2 0 0 -3 1 -2 
0 2 0 -1 1 -2 0 -5 1 1 0 -1 0 1 1 1 
0 2 1 6 1 -1 0 5 1 0 0 -1 0 3 1 1 
0 4 1 -1 0 6 0 -2 1 1 0 4 0 -1 1 -5 
0 -2 0 1 1 8 0 4 1 1 1 0 0 12 1 1 
0 -7 1 -1 0 -2 0 10 1 1 0 1 0 -8 1 1 
0 4 1 0 0 1 0 -1 1 -1 0 2 1 7 0 2 
0 -1 1 -3 1 0 -1 0 2 -2 0 1 0 0 2 -2 
0 -1 0 3 1 -1 0 -3 1 0 0 -3 1 -1 0 -5 
1 -1 0 -4 1 1 0 3 1 1 0 -8 1 0 0 2 
1 -1 0 -6 1 -1 0 -3 1 1 0 -6 1 -1 0 -2 
1 -5 1 -1 0 -1 0 2 1 1 0 1 0 -3 1 -1 
0 -5 0 1 1 8 0 2 0 -7 0 2 1 1 0 7 
1 1 0 -12 1 2 0 8 1 1 0 1 0 -4 1 -1 
0 1 0 -3 0 2 1 1 0 8 0 -1 1 -2 0 -1 
0 2 1 -1 0 4 1 -1 0 -1 0 3 1 1 0 -2 
0 1 1 4 0 -5 1 -1 0 -1 0 1 1 -1 1 0 
0 1 0 -6 0 1 1 1 0 5 1 -1 0 1 1 2 
0 1 1 -1 1 -1 0 2 1 0 0 1 1 1 0 4 
0 -1 1 -1 0 6 1 -1 0 -3 0 2 1 1 0 2 
1 -1 0 -1 0 7 1 1 0 1 0 -5 2 -2 0 6 
1 1 0 7 1 -1 0 -6 1 -1 0 2 1 1 0 -3 
1 -1 0 -3 1 -1 3860 2892 300 MP stroke
0 5 0 -2 1 -3 0 -2 1 -3 0 -4 1 -1 1 0 
0 -2 1 -1 1 0 0 1 0 -3 1 1 0 -7 1 1 
0 6 0 1 1 -12 0 -4 1 -1 0 4 0 -1 1 1 
0 1 0 -5 1 -1 0 -3 0 1 1 1 0 2 0 -1 
1 -4 0 6 1 1 0 1 0 -1 2 -2 0 -2 1 1 
0 5 1 1 0 -3 1 -1 0 8 1 -1 0 -6 1 -1 
0 5 1 1 0 8 0 -1 1 1 0 -2 0 1 1 1 
0 1 0 -1 1 6 0 -1 0 1 1 1 0 9 1 4 
0 0 0 -3 0 2 1 -1 0 -1 0 1 1 3 1 5 
-1 0 2 -2 0 -1 0 4 1 -1 0 -4 0 6 2 0 
0 -9 1 -1 0 -3 0 1 1 1 0 5 0 -1 1 -3 
0 -2 1 -4 0 3 0 -8 0 1 1 1 0 -5 1 -1 
0 -1 0 1 1 -3 0 0 0 -4 1 1 0 -1 0 1 
1 -4 1 -1 0 1 0 -1 1 -5 0 6 1 1 0 -3 
0 5 1 0 0 -3 1 0 0 -3 1 0 0 -1 0 1 
1 3 0 1 0 -1 1 1 0 0 2 2 0 3 1 1 
0 7 1 -1 0 -5 1 1 0 -1 0 1 1 6 0 -6 
1 -1 0 4 1 -1 1 1 1 -1 0 0 0 -2 1 -1 
0 3 0 -4 0 2 1 0 0 2 0 -3 1 1 1 1 
1 0 0 3 0 -4 0 2 1 -1 0 -3 1 2 0 3 
1 -5 0 -3 0 2 1 -1 0 -1 0 5 1 1 0 4 
0 -5 0 1 1 1 0 1 0 -1 0 1 1 -1 0 -1 
1 -4 0 5 1 1 0 5 0 -1 1 -1 0 -12 1 -1 
0 -2 0 1 1 1 0 1 1 1 1 1 0 -1 0 3 
1 1 0 10 1 1 0 3 0 -1 1 -1 0 2 0 -13 
1 -1 0 -3 0 6 1 1 0 12 1 1 0 1 0 -3 
1 -1 0 -1 0 2 1 1 0 8 1 1 0 0 0 -6 
1 -1 0 6 1 1 0 1 0 -2 1 4 0 -3 0 1 
1 1 0 2 1 7 0 1 0 -5 1 -1 0 -5 1 1 
0 6 1 1 0 2 0 -3 1 -1 0 -5 0 1 1 1 
0 7 0 -5 1 -1 0 -11 1 -1 0 4 0 -7 0 6 
1 1 0 2 0 -3 1 -1 0 -4 1 -1 0 -1 1 -4 
1 2 -1 0 2 -2 0 -7 1 1 0 5 1 -1 0 -2 
1 -4 0 3 1 1 0 2 1 -1 0 -7 1 -1 0 0 
0 1 1 -3 0 7 0 -2 1 1 0 2 0 -2 1 -1 
0 -2 0 3 1 1 0 3 1 1 0 -6 0 2 1 0 
0 -4 1 -2 0 2 1 -1 0 -4 1 -1 0 -2 1 1 
0 -4 1 -1 0 3 3735 2915 300 MP stroke
1 -5 0 1 1 -1 0 3 2 2 0 1 0 -5 1 -1 
0 -4 1 -1 1 1 0 3 1 1 0 5 1 1 0 1 
0 -1 1 -2 0 -3 1 0 0 5 1 1 0 -5 1 4 
0 2 0 -1 1 -1 0 5 1 -1 0 -6 1 -1 0 6 
1 1 0 2 1 -1 0 -2 1 -1 0 5 1 3 0 -1 
0 11 1 -1 0 -1 1 -8 0 7 1 1 0 8 1 -1 
0 -6 1 -1 0 4 0 -5 0 4 1 1 0 2 0 -4 
0 2 1 -1 0 2 0 -4 0 1 1 -1 0 -1 0 8 
1 1 0 2 0 -6 1 -2 0 -1 0 1 1 -1 0 1 
0 -1 1 1 1 0 -1 0 2 -2 0 -3 0 1 1 1 
0 -1 0 2 1 4 0 -1 1 -5 0 -1 0 3 1 1 
0 3 1 5 0 -7 1 -1 1 0 0 -3 0 -1 1 3 
0 1 0 -2 1 1 0 1 0 -1 1 -2 0 -8 1 0 
0 7 1 0 0 -8 1 1 0 -3 0 1 1 1 0 -2 
1 0 0 -1 0 1 1 2 0 -2 1 -1 0 5 1 1 
0 -12 0 0 1 -1 0 -4 0 2 1 1 0 2 1 1 
0 -3 0 6 1 -1 0 2 1 1 0 2 0 -1 1 -2 
0 -1 0 3 1 -1 0 -2 1 0 0 -1 0 5 1 -1 
0 5 1 1 0 1 0 -1 1 -3 0 9 1 0 0 -3 
1 -1 0 1 2 2 0 2 0 -1 1 4 1 1 0 2 
1 1 0 -3 0 2 2 -2 1 -1 0 -5 0 1 1 3 
1 1 1 1 0 3 1 1 1 -5 -1 0 2 0 0 2 
1 0 1 1 0 3 1 -1 0 -2 0 5 1 1 0 -5 
1 0 0 1 0 -1 1 5 0 1 0 -2 1 -1 0 -1 
1 1 0 3 1 1 0 -3 1 -1 0 1 0 -1 1 -5 
1 1 1 1 1 0 0 1 0 -1 1 4 0 -7 1 -1 
0 -1 0 1 1 1 0 1 0 -2 0 1 2 0 0 5 
0 -1 1 -1 0 -4 1 0 0 4 1 -3 0 4 1 -1 
0 -2 1 0 0 2 0 -3 0 2 2 -2 0 -1 0 1 
2 2 0 -2 1 -1 0 -4 1 0 0 4 0 -5 0 4 
1 -3 0 5 1 -1 0 1 0 -2 1 -1 1 -11 -1 0 
2 2 0 -1 0 1 1 2 0 -7 1 -1 1 -1 1 -2 
-1 0 2 2 0 3 0 -7 2 -2 0 2 1 1 0 -4 
1 1 0 1 0 -2 0 1 1 -1 0 -4 0 1 1 1 
0 0 0 1 1 2 0 -1 0 1 1 -6 0 1 0 -1 
1 1 0 6 1 -1 0 -8 0 1 1 1 0 3 1 4 
0 -6 0 1 1 1 0 7 1 1 1 1 0 -8 1 -1 
0 7 1 2 0 4 3599 2906 300 MP stroke
1 -1 0 -2 0 1 1 3 0 3 2 0 0 -3 0 3 
1 -1 0 -3 1 1 0 7 1 1 0 -1 0 4 1 -1 
1 1 0 1 0 -4 1 1 0 2 1 0 1 0 0 3 
1 1 0 1 0 -1 1 9 0 -3 1 1 0 6 1 0 
0 -1 1 -7 0 -9 1 1 0 -1 0 4 1 -4 0 -1 
0 6 1 -1 0 -20 1 0 0 -3 1 0 0 -3 0 1 
1 2 0 -6 1 2 0 -10 1 0 0 -2 1 -1 0 2 
1 1 0 -7 1 -1 0 6 1 0 0 1 0 -4 1 1 
0 1 0 -4 1 -1 0 -1 0 1 1 8 0 5 1 1 
0 -1 0 1 1 -6 0 1 0 -1 1 9 0 1 0 -1 
1 -1 0 17 0 -18 0 16 1 -1 0 -1 0 1 1 -1 
0 2 1 1 0 1 0 -1 1 -1 0 24 1 1 0 1 
0 -4 1 1 0 6 1 1 0 -9 1 -1 0 5 0 -5 
1 1 0 8 1 -1 0 1 0 -1 1 -8 0 -3 1 1 
0 -3 1 1 0 3 1 1 0 1 0 -22 1 -2 0 -5 
1 0 0 1 0 -5 1 -1 0 -1 0 1 1 6 0 1 
0 -15 1 1 0 -4 1 0 0 -3 0 -1 1 3 0 3 
0 -2 2 -2 0 -5 0 1 2 0 0 2 1 -1 0 -6 
0 1 1 1 0 3 1 1 0 -2 1 -1 0 -1 0 4 
1 1 0 3 1 -1 0 -5 1 -1 0 1 1 1 0 0 
0 1 1 3 0 -1 0 1 1 4 0 3 1 1 0 1 
0 -2 1 -1 0 6 0 -2 1 -3 0 2 1 4 0 0 
0 4 1 -1 0 -4 0 4 1 1 0 4 0 -3 1 1 
0 -1 0 2 1 -1 1 1 0 6 1 1 1 -1 0 6 
0 -7 0 6 1 -1 0 2 1 1 0 4 1 1 0 1 
0 -1 1 1 0 3 1 0 0 7 1 1 0 1 0 -1 
1 -1 0 12 0 -14 0 13 1 -1 0 -4 0 1 1 1 
0 -9 0 3 2 -2 0 5 1 1 0 -10 1 -3 0 -1 
1 1 0 5 1 1 0 -4 1 -1 0 -6 1 -1 0 -5 
1 -1 0 2 0 -3 0 1 1 1 0 3 1 -1 0 -2 
0 1 1 -1 0 -4 0 3 1 1 0 1 0 -4 1 -1 
0 -4 1 1 0 7 1 1 0 -4 1 0 1 -4 -1 0 
2 2 0 6 0 -1 1 -3 0 -3 0 1 1 1 0 1 
0 -4 0 1 1 1 0 6 0 -1 1 -1 0 -1 0 1 
1 -4 1 1 -1 0 2 -2 0 -1 0 3 1 -1 0 -3 
0 1 1 -3 0 4 1 0 0 2 1 1 0 1 0 -1 
1 -5 0 -4 1 -1 0 -1 0 1 1 3 0 3 1 1 
0 1 0 -2 0 1 3474 2905 300 MP stroke
1 1 0 2 0 -1 1 -3 0 -3 1 4 0 -1 1 -5 
0 -2 1 -1 0 3 1 1 0 -6 2 -2 1 -2 -1 0 
2 2 0 -4 1 1 0 3 1 1 0 1 0 -1 2 0 
0 3 1 -1 0 -2 2 0 0 -1 0 1 1 -1 0 3 
1 1 0 1 0 -4 1 -1 0 3 0 -4 0 3 1 1 
0 3 1 1 0 2 0 -1 1 -1 0 -3 1 -1 0 7 
1 1 0 -3 0 1 1 -1 0 5 1 -1 0 -4 1 1 
0 6 1 1 0 -2 1 1 0 1 0 -1 1 5 0 -2 
1 -1 0 -1 0 4 1 -1 0 4 1 1 0 3 1 -1 
0 4 1 -1 0 7 1 -1 0 -9 1 0 0 -1 0 5 
1 -4 0 -1 0 1 1 3 0 -1 0 1 1 -7 0 2 
1 0 0 1 1 -4 0 -1 0 1 2 0 0 -5 1 -1 
0 3 1 2 0 1 1 -6 0 -1 1 -1 0 -1 1 7 
0 -8 1 -1 0 3 1 1 0 2 0 -6 1 -1 0 1 
0 -2 1 -3 0 4 1 1 0 1 0 -1 1 1 1 1 
0 -4 1 0 0 7 0 -1 1 -7 0 10 1 1 0 1 
0 -6 0 1 1 -1 0 -2 1 1 0 5 1 1 1 -2 
-1 0 2 2 0 3 1 -1 0 6 0 -2 1 -1 0 5 
1 -5 0 0 0 1 1 2 0 -1 0 1 1 2 0 -1 
1 11 0 1 0 -1 1 -3 0 1 1 -5 0 0 0 -2 
0 1 1 1 0 1 0 -1 1 3 0 -6 1 1 1 -1 
0 5 1 -1 0 -3 1 1 0 2 0 1 1 -3 0 -2 
1 1 1 -1 0 -4 1 -1 0 -1 0 2 2 2 0 2 
0 -3 1 -1 1 -1 0 -2 0 1 1 -1 0 7 0 -1 
1 -1 0 -6 1 1 1 1 1 1 0 4 1 0 0 1 
0 -4 1 1 1 -1 0 4 1 -1 0 1 0 -3 1 3 
1 -1 1 7 -1 0 2 -7 0 -1 0 3 1 -1 1 5 
-1 0 2 -2 0 -3 1 3 0 1 1 -1 0 -3 1 1 
0 4 1 1 0 -6 1 -1 0 -2 0 5 1 -1 0 -2 
1 1 0 1 0 -5 1 1 0 10 1 1 0 -7 1 -5 
0 1 1 1 0 2 1 -1 0 -2 1 -1 0 1 0 -2 
1 -1 0 -4 1 -1 0 -5 1 0 0 -1 2 -2 0 -5 
1 1 1 1 1 -1 -1 0 2 0 0 1 0 -1 1 -1 
0 -2 0 1 1 5 0 3 0 -1 1 -1 0 1 1 -4 
0 -2 0 1 1 -1 0 -5 1 0 0 -3 1 -1 0 -8 
1 -1 0 -1 0 4 1 1 0 3 1 1 0 -8 1 1 
1 1 0 -6 1 -1 0 -2 2 0 0 -3 1 1 0 2 
1 -1 0 -6 1 -1 3331 2947 300 MP stroke
0 -1 0 4 1 1 1 -4 -1 0 2 0 0 2 1 -1 
0 0 0 1 1 1 0 -2 0 1 1 1 0 7 1 -1 
0 -1 0 3 1 -1 0 7 1 1 0 -4 0 4 1 0 
0 -2 0 2 1 -1 0 4 1 1 0 4 1 -1 0 7 
1 1 0 2 0 -1 1 1 0 7 1 3 0 -2 1 0 
0 7 1 0 1 0 0 1 0 -1 1 5 1 2 -1 0 
2 -2 1 2 -1 0 2 0 1 0 -1 -2 0 2 2 -2 
0 2 0 -3 1 1 0 -2 1 -1 0 -3 1 -1 0 -4 
0 3 1 1 0 5 1 1 0 -4 1 1 0 2 1 0 
0 -6 1 -1 1 -1 0 3 1 1 0 -2 1 2 0 -1 
0 1 1 -3 0 -2 1 1 0 8 1 -7 1 0 0 2 
1 0 1 -1 0 -2 1 1 0 1 2 0 0 5 1 0 
1 1 0 5 1 2 0 -1 0 1 1 -6 0 3 1 0 
1 -1 1 1 0 -2 1 1 0 -3 0 2 1 3 1 2 
-1 0 2 -2 0 -7 1 1 0 1 0 -1 1 -5 0 -1 
0 1 1 2 0 1 1 -4 -1 0 2 0 1 -1 1 -1 
0 2 1 0 0 2 1 1 0 -4 1 -1 0 -5 1 1 
0 1 0 -1 1 1 0 -2 0 1 1 6 0 1 0 -1 
1 -8 0 3 0 -1 2 0 0 3 1 0 0 2 1 0 
0 5 1 1 0 3 1 -1 1 3 -1 -4 0 4 2 -2 
0 -1 0 3 1 -1 1 5 -1 0 2 1 1 1 0 6 
1 0 0 -2 1 -1 0 2 0 -3 1 0 0 -3 1 -1 
0 3 1 0 0 -2 0 1 2 2 0 1 0 -1 1 -1 
0 -10 1 -1 0 4 1 1 0 5 1 1 0 -3 1 -1 
0 -1 1 -7 0 5 1 1 0 6 1 1 0 -7 1 -1 
0 1 0 -1 1 -1 0 6 0 -1 1 -1 0 1 0 -1 
1 1 0 1 0 -4 1 -1 0 -9 1 -1 0 -2 0 3 
1 1 0 6 1 -1 0 -3 0 1 1 1 0 3 1 1 
0 -3 0 1 1 1 0 2 0 0 1 1 0 2 0 -5 
1 -1 0 -6 0 3 1 1 0 -1 0 1 2 -2 0 1 
0 -1 1 4 0 0 0 1 1 -5 1 0 0 1 0 -1 
1 -4 1 -1 1 -1 0 3 1 1 0 1 0 -4 1 1 
0 6 1 -1 0 -9 1 -1 0 3 1 1 0 2 0 -2 
1 0 0 -3 1 1 0 3 1 1 0 -1 0 1 1 2 
0 -1 0 3 2 0 0 3 0 -2 1 0 0 5 1 0 
0 2 0 -1 1 -12 1 8 -1 0 2 -2 0 -1 0 2 
1 1 1 1 1 -1 0 -3 0 -1 1 8 0 -1 0 1 
1 -4 0 5 1 1 3189 2887 300 MP stroke
0 -3 1 1 0 2 0 -3 0 2 2 -2 0 -2 1 0 
0 4 1 -1 0 -1 0 2 1 -1 0 -2 1 1 0 6 
0 -1 1 -4 0 -1 0 1 1 -4 1 3 -1 0 2 -2 
0 1 0 -2 1 1 0 1 0 1 1 -4 0 1 0 -3 
1 1 0 1 0 -3 1 1 1 0 0 -3 1 -1 0 -3 
1 1 0 4 1 -8 0 -1 1 4 1 0 -1 0 2 0 
0 -1 0 4 1 -1 0 -3 1 0 0 2 1 0 0 -2 
1 -1 1 1 0 7 1 -2 1 -1 0 2 1 -3 -1 0 
2 0 1 -1 0 -1 0 1 1 5 0 -2 1 0 0 2 
1 0 0 -4 1 0 0 4 1 1 1 -1 0 1 0 -1 
1 -1 0 6 0 -4 1 1 0 3 1 1 1 -3 -1 0 
2 2 0 -5 1 0 0 -1 0 1 1 1 0 -6 2 -3 
0 1 0 -3 2 0 0 -3 0 1 1 2 0 -3 1 -1 
0 4 1 0 1 -1 0 -6 0 1 1 1 1 -1 0 2 
1 1 0 1 0 -2 1 -1 0 -2 1 0 0 -5 1 1 
0 4 0 -1 2 -2 1 4 -1 0 2 -2 0 1 0 -1 
1 -3 0 2 1 1 1 0 1 1 1 1 0 -3 1 -1 
0 6 1 -1 1 1 -1 -3 0 3 2 -2 0 -1 1 1 
0 4 1 1 1 -1 0 6 1 1 0 -4 0 1 1 3 
0 -1 1 -6 0 7 2 2 0 1 0 -1 2 -2 0 3 
1 1 0 2 1 -1 0 -2 1 3 1 -2 -1 0 2 2 
0 4 1 2 0 -7 1 -1 0 -3 1 0 0 5 2 0 
0 -5 2 -2 1 0 0 -3 1 1 0 -1 0 1 1 -3 
0 -1 0 1 1 -3 1 -1 0 -5 0 1 2 0 0 -3 
1 1 0 1 0 -1 1 -3 0 3 0 -4 0 2 2 2 
0 3 1 3 0 1 0 -1 1 -2 0 -1 0 1 1 -1 
0 -5 1 1 1 1 0 4 1 1 0 1 0 -2 2 -2 
0 4 0 -1 1 3 0 -1 0 1 1 -5 0 4 1 0 
0 -1 2 0 0 5 0 -1 2 0 1 1 -1 0 2 -2 
0 7 1 -1 0 -4 3066 2907 236 MP stroke
0 sg
1 0 1 0 1 0 1 0 1 0 1 0 1 0 1 0 
1 0 1 0 1 0 1 0 1 0 1 0 1 0 1 0 
1 0 1 0 1 0 1 0 1 0 1 0 1 0 1 0 
1 0 1 0 1 0 1 0 1 0 1 0 1 0 1 0 
1 0 1 0 1 0 1 0 1 0 1 0 1 0 1 0 
1 0 1 0 1 0 1 0 1 0 1 0 1 0 1 0 
1 0 1 0 1 0 1 0 1 0 1 0 1 0 1 0 
1 0 1 0 1 0 1 0 1 0 1 0 1 0 1 0 
1 0 1 0 1 0 1 0 1 0 1 0 1 0 1 0 
1 0 1 0 1 0 1 0 1 0 1 0 1 0 1 0 
1 0 1 0 1 0 1 0 1 0 1 0 1 0 1 0 
1 0 1 0 1 0 1 0 1 0 1 0 1 0 1 0 
1 0 1 0 1 0 1 0 1 0 1 0 1 0 1 0 
1 0 1 0 1 0 1 0 1 0 1 0 1 0 1 0 
1 0 1 0 1 0 1 0 1 0 1 0 1 0 1 0 
1 0 1 0 1 0 1 0 1 0 1 0 1 0 1 0 
1 0 1 0 1 0 1 0 1 0 1 0 1 0 1 0 
1 0 1 0 1 0 1 0 1 0 1 0 1 0 1 0 
1 0 1 0 1 0 1 0 1 0 1 0 1 0 1 0 
1 0 1 0 1 0 1 0 1 0 1 0 1 0 1 0 
1 0 1 0 1 0 1 0 1 0 1 0 1 0 1 0 
1 0 1 0 1 0 1 0 1 0 1 0 1 0 1 0 
1 0 1 0 1 0 1 0 1 0 1 0 1 0 1 0 
1 0 1 0 1 0 1 0 1 0 1 0 1 0 1 0 
1 0 1 0 1 0 1 0 1 0 1 0 1 0 1 0 
1 0 1 0 1 0 1 0 1 0 1 0 1 0 1 0 
1 0 1 0 1 0 1 0 1 0 1 0 1 0 1 0 
1 0 1 0 1 0 1 0 1 0 1 0 1 0 1 0 
1 0 1 0 1 0 1 0 1 0 1 0 1 0 1 0 
1 0 1 0 1 0 1 0 1 0 1 0 1 0 1 0 
1 0 1 0 1 0 1 0 1 0 1 0 1 0 1 0 
1 0 1 0 1 0 1 0 1 0 1 0 1 0 1 0 
1 0 1 0 1 0 1 0 1 0 1 0 1 0 1 0 
1 0 1 0 1 0 1 0 1 0 1 0 1 0 1 0 
1 0 1 0 1 0 1 0 1 0 1 0 1 0 1 0 
1 0 1 0 1 0 1 0 1 0 1 0 1 0 1 0 
1 0 1 0 1 0 1 0 1 0 1 0 1 0 1 0 
1 0 1 0 1 0 4383 2900 300 MP stroke
1 0 1 0 1 0 1 0 1 0 1 0 1 0 1 0 
1 0 1 0 1 0 1 0 1 0 1 0 1 0 1 0 
1 0 1 0 1 0 1 0 1 0 1 0 1 0 1 0 
1 0 1 0 1 0 1 0 1 0 1 0 1 0 1 0 
1 0 1 0 1 0 1 0 1 0 1 0 1 0 1 0 
1 0 1 0 1 0 1 0 1 0 1 0 1 0 1 0 
1 0 1 0 1 0 1 0 1 0 1 0 1 0 1 0 
1 0 1 0 1 0 1 0 1 0 1 0 1 0 1 0 
1 0 1 0 1 0 1 0 1 0 1 0 1 0 1 0 
1 0 1 0 1 0 1 0 1 0 1 0 1 0 1 0 
1 0 1 0 1 0 1 0 1 0 1 0 1 0 1 0 
1 0 1 0 1 0 1 0 1 0 1 0 1 0 1 0 
1 0 1 0 1 0 1 0 1 0 1 0 1 0 1 0 
1 0 1 0 1 0 1 0 1 0 1 0 1 0 1 0 
1 0 1 0 1 0 1 0 1 0 1 0 1 0 1 0 
1 0 1 0 1 0 1 0 1 0 1 0 1 0 1 0 
1 0 1 0 1 0 1 0 1 0 1 0 1 0 1 0 
1 0 1 0 1 0 1 0 1 0 1 0 1 0 1 0 
1 0 1 0 1 0 1 0 1 0 1 0 1 0 1 0 
1 0 1 0 1 0 1 0 1 0 1 0 1 0 1 0 
1 0 1 0 1 0 1 0 1 0 1 0 1 0 1 0 
1 0 1 0 1 0 1 0 1 0 1 0 1 0 1 0 
1 0 1 0 1 0 1 0 1 0 1 0 1 0 1 0 
1 0 1 0 1 0 1 0 1 0 1 0 1 0 1 0 
1 0 1 0 1 0 1 0 1 0 1 0 1 0 1 0 
1 0 1 0 1 0 1 0 1 0 1 0 1 0 1 0 
1 0 1 0 1 0 1 0 1 0 1 0 1 0 1 0 
1 0 1 0 1 0 1 0 1 0 1 0 1 0 1 0 
1 0 1 0 1 0 1 0 1 0 1 0 1 0 1 0 
1 0 1 0 1 0 1 0 1 0 1 0 1 0 1 0 
1 0 1 0 1 0 1 0 1 0 1 0 1 0 1 0 
1 0 1 0 1 0 1 0 1 0 1 0 1 0 1 0 
1 0 1 0 1 0 1 0 1 0 1 0 1 0 1 0 
1 0 1 0 1 0 1 0 1 0 1 0 1 0 1 0 
1 0 1 0 1 0 1 0 1 0 1 0 1 0 1 0 
1 0 1 0 1 0 1 0 1 0 1 0 1 0 1 0 
1 0 1 0 1 0 1 0 1 0 1 0 1 0 1 0 
1 0 1 0 1 0 4084 2900 300 MP stroke
1 0 1 0 1 0 1 0 1 0 1 0 1 0 1 0 
1 0 1 0 1 0 1 0 1 0 1 0 1 0 1 0 
1 0 1 0 1 0 1 0 1 0 1 0 1 0 1 0 
1 0 1 0 1 0 1 0 1 0 1 0 1 0 1 0 
1 0 1 0 1 0 1 0 1 0 1 0 1 0 1 0 
1 0 1 0 1 0 1 0 1 0 1 0 1 0 1 0 
1 0 1 0 1 0 1 0 1 0 1 0 1 0 1 0 
1 0 1 0 1 0 1 0 1 0 1 0 1 0 1 0 
1 0 1 0 1 0 1 0 1 0 1 0 1 0 1 0 
1 0 1 0 1 0 1 0 1 0 1 0 1 0 1 0 
1 0 1 0 1 0 1 0 1 0 1 0 1 0 1 0 
1 0 1 0 1 0 1 0 1 0 1 0 1 0 1 0 
1 0 1 0 1 0 1 0 1 0 1 0 1 0 1 0 
1 0 1 0 1 0 1 0 1 0 1 0 1 0 1 0 
1 0 1 0 1 0 1 0 1 0 1 0 1 0 1 0 
1 0 1 0 1 0 1 0 1 0 1 0 1 0 1 0 
1 0 1 0 1 0 1 0 1 0 1 0 1 0 1 0 
1 0 1 0 1 0 1 0 1 0 1 0 1 0 1 0 
1 0 1 0 1 0 1 0 1 0 1 0 1 0 1 0 
1 0 1 0 1 0 1 0 1 0 1 0 1 0 1 0 
1 0 1 0 1 0 1 0 1 0 1 0 1 0 1 0 
1 0 1 0 1 0 1 0 1 0 1 0 1 0 1 0 
1 0 1 0 1 0 1 0 1 0 1 0 1 0 1 0 
1 0 1 0 1 0 1 0 1 0 1 0 1 0 1 0 
1 0 1 0 1 0 1 0 1 0 1 0 1 0 1 0 
1 0 1 0 1 0 1 0 1 0 1 0 1 0 1 0 
1 0 1 0 1 0 1 0 1 0 1 0 1 0 1 0 
1 0 1 0 1 0 1 0 1 0 1 0 1 0 1 0 
1 0 1 0 1 0 1 0 1 0 1 0 1 0 1 0 
1 0 1 0 1 0 1 0 1 0 1 0 1 0 1 0 
1 0 1 0 1 0 1 0 1 0 1 0 1 0 1 0 
1 0 1 0 1 0 1 0 1 0 1 0 1 0 1 0 
1 0 1 0 1 0 1 0 1 0 1 0 1 0 1 0 
1 0 1 0 1 0 1 0 1 0 1 0 1 0 1 0 
1 0 1 0 1 0 1 0 1 0 1 0 1 0 1 0 
1 0 1 0 1 0 1 0 1 0 1 0 1 0 1 0 
1 0 1 0 1 0 1 0 1 0 1 0 1 0 1 0 
1 0 1 0 1 0 3785 2900 300 MP stroke
1 0 1 0 1 0 1 0 1 0 1 0 1 0 1 0 
1 0 1 0 1 0 1 0 1 0 1 0 1 0 1 0 
1 0 1 0 1 0 1 0 1 0 1 0 1 0 1 0 
1 0 1 0 1 0 1 0 1 0 1 0 1 0 1 0 
1 0 1 0 1 0 1 0 1 0 1 0 1 0 1 0 
1 0 1 0 1 0 1 0 1 0 1 0 1 0 1 0 
1 0 1 0 1 0 1 0 1 0 1 0 1 0 1 0 
1 0 1 0 1 0 1 0 1 0 1 0 1 0 1 0 
1 0 1 0 1 0 1 0 1 0 1 0 1 0 1 0 
1 0 1 0 1 0 1 0 1 0 1 0 1 0 1 0 
1 0 1 0 1 0 1 0 1 0 1 0 1 0 1 0 
1 0 1 0 1 0 1 0 1 0 1 0 1 0 1 0 
1 0 1 0 1 0 1 0 1 0 1 0 1 0 1 0 
1 0 1 0 1 0 1 0 1 0 1 0 1 0 1 0 
1 0 1 0 1 0 1 0 1 0 1 0 1 0 1 0 
1 0 1 0 1 0 1 0 1 0 1 0 1 0 1 0 
1 0 1 0 1 0 1 0 1 0 1 0 1 0 1 0 
1 0 1 0 1 0 1 0 1 0 1 0 1 0 1 0 
1 0 1 0 1 0 1 0 1 0 1 0 1 0 1 0 
1 0 1 0 1 0 1 0 1 0 1 0 1 0 1 0 
1 0 1 0 1 0 1 0 1 0 1 0 1 0 1 0 
1 0 1 0 1 0 1 0 1 0 1 0 1 0 1 0 
1 0 1 0 1 0 1 0 1 0 1 0 1 0 1 0 
1 0 1 0 1 0 1 0 1 0 1 0 1 0 1 0 
1 0 1 0 1 0 1 0 1 0 1 0 1 0 1 0 
1 0 1 0 1 0 1 0 1 0 1 0 1 0 1 0 
1 0 1 0 1 0 1 0 1 0 1 0 1 0 1 0 
1 0 1 0 1 0 1 0 1 0 1 0 1 0 1 0 
1 0 1 0 1 0 1 0 1 0 1 0 1 0 1 0 
1 0 1 0 1 0 1 0 1 0 1 0 1 0 1 0 
1 0 1 0 1 0 1 0 1 0 1 0 1 0 1 0 
1 0 1 0 1 0 1 0 1 0 1 0 1 0 1 0 
1 0 1 0 1 0 1 0 1 0 1 0 1 0 1 0 
1 0 1 0 1 0 1 0 1 0 1 0 1 0 1 0 
1 0 1 0 1 0 1 0 1 0 1 0 1 0 1 0 
1 0 1 0 1 0 1 0 1 0 1 0 1 0 1 0 
1 0 1 0 1 0 1 0 1 0 1 0 1 0 1 0 
1 0 1 0 1 0 3486 2900 300 MP stroke
1 0 1 0 1 0 1 0 1 0 1 0 1 0 1 0 
1 0 1 0 1 0 1 0 1 0 1 0 1 0 1 0 
1 0 1 0 1 0 1 0 1 0 1 0 1 0 1 0 
1 0 1 0 1 0 1 0 1 0 1 0 1 0 1 0 
1 0 1 0 1 0 1 0 1 0 1 0 1 0 1 0 
1 0 1 0 1 0 1 0 1 0 1 0 1 0 1 0 
1 0 1 0 1 0 1 0 1 0 1 0 1 0 1 0 
1 0 1 0 1 0 1 0 1 0 1 0 1 0 1 0 
1 0 1 0 1 0 1 0 1 0 1 0 1 0 1 0 
1 0 1 0 1 0 1 0 1 0 1 0 1 0 1 0 
1 0 1 0 1 0 1 0 1 0 1 0 1 0 1 0 
1 0 1 0 1 0 1 0 1 0 1 0 1 0 1 0 
1 0 1 0 1 0 1 0 1 0 1 0 1 0 1 0 
1 0 1 0 1 0 1 0 1 0 1 0 1 0 1 0 
1 0 1 0 1 0 1 0 1 0 1 0 1 0 1 0 
1 0 1 0 1 0 1 0 1 0 1 0 1 0 1 0 
1 0 1 0 1 0 1 0 1 0 1 0 1 0 1 0 
1 0 1 0 1 0 1 0 1 0 1 0 1 0 1 0 
1 0 1 0 1 0 1 0 1 0 1 0 1 0 1 0 
1 0 1 0 1 0 1 0 1 0 1 0 1 0 1 0 
1 0 1 0 1 0 1 0 1 0 1 0 1 0 1 0 
1 0 1 0 1 0 1 0 1 0 1 0 1 0 1 0 
1 0 1 0 1 0 1 0 1 0 1 0 1 0 1 0 
1 0 1 0 1 0 1 0 1 0 1 0 1 0 1 0 
1 0 1 0 1 0 1 0 1 0 1 0 1 0 1 0 
1 0 1 0 1 0 1 0 1 0 1 0 1 0 1 0 
1 0 1 0 1 0 1 0 1 0 1 0 1 0 1 0 
1 0 1 0 1 0 1 0 1 0 1 0 1 0 1 0 
1 0 1 0 1 0 1 0 1 0 1 0 1 0 1 0 
1 0 1 0 1 0 1 0 1 0 1 0 1 0 1 0 
1 0 1 0 1 0 1 0 1 0 1 0 1 0 1 0 
1 0 1 0 1 0 1 0 1 0 1 0 1 0 1 0 
1 0 1 0 1 0 1 0 1 0 1 0 1 0 1 0 
1 0 1 0 1 0 1 0 1 0 1 0 1 0 1 0 
1 0 1 0 1 0 1 0 1 0 1 0 1 0 1 0 
1 0 1 0 1 0 1 0 1 0 1 0 1 0 1 0 
1 0 1 0 1 0 1 0 1 0 1 0 1 0 1 0 
1 0 1 0 1 0 3187 2900 300 MP stroke
1 0 1 0 1 0 1 0 1 0 1 0 1 0 1 0 
1 0 1 0 1 0 1 0 1 0 1 0 1 0 1 0 
1 0 1 0 1 0 1 0 1 0 1 0 1 0 1 0 
1 0 1 0 1 0 1 0 1 0 1 0 1 0 1 0 
1 0 1 0 1 0 1 0 1 0 1 0 1 0 1 0 
1 0 1 0 1 0 1 0 1 0 1 0 1 0 1 0 
1 0 1 0 1 0 1 0 1 0 1 0 1 0 1 0 
1 0 1 0 1 0 1 0 1 0 1 0 1 0 1 0 
1 0 1 0 1 0 1 0 1 0 1 0 1 0 1 0 
1 0 1 0 1 0 1 0 1 0 1 0 1 0 1 0 
1 0 1 0 1 0 1 0 1 0 1 0 1 0 1 0 
1 0 1 0 1 0 1 0 1 0 1 0 1 0 1 0 
1 0 1 0 1 0 1 0 1 0 1 0 1 0 1 0 
1 0 1 0 1 0 1 0 1 0 1 0 1 0 1 0 
1 0 1 0 1 0 1 0 1 0 1 0 1 0 1 0 
1 0 3066 2900 122 MP stroke
gr

2713 3278 mt  -90 rotate
(Absolute error) s
90 rotate

end %%Color Dict

eplot
%%EndObject

epage
end

showpage

%%Trailer
%%EOF
