\contentsline {section}{\numberline {1}8-May-2012}{2}
\contentsline {section}{\numberline {2}10-May-2012}{3}
\contentsline {section}{\numberline {3}21-October-2012}{3}
\contentsline {section}{\numberline {4}27/Oct/2012 -- 28/Nov/2012}{4}
