\relax 
\@writefile{toc}{\contentsline {section}{\numberline {1}Introduction}{2}}
\newlabel{sec:intro}{{1}{2}}
\@writefile{toc}{\contentsline {section}{\numberline {2}System Overview}{2}}
\newlabel{sec:overview}{{2}{2}}
\@writefile{toc}{\contentsline {subsection}{\numberline {2.1}AR.Drone platform}{2}}
\newlabel{platform}{{2.1}{2}}
\@writefile{toc}{\contentsline {subsection}{\numberline {2.2}Initial ARDrone coordinates}{2}}
\newlabel{sec:1}{{2.2}{2}}
\@writefile{lof}{\contentsline {figure}{\numberline {1}{\ignorespaces  Close look. IMU and camera coordinate definitions. \leavevmode {\color  {red}Red}, \leavevmode {\color  {green}green} and \leavevmode {\color  {blue}blue} denote \leavevmode {\color  {red}x},\leavevmode {\color  {green}y},\leavevmode {\color  {blue}z} respectively.}}{2}}
\@writefile{toc}{\contentsline {subsection}{\numberline {2.3}Navdata}{2}}
\newlabel{sec:navdata}{{2.3}{2}}
\@writefile{lot}{\contentsline {table}{\numberline {1}{\ignorespaces navdata structure definition with SI unit.}}{3}}
\newlabel{tab:navdata}{{1}{3}}
\@writefile{toc}{\contentsline {subsection}{\numberline {2.4}ROS topic name}{3}}
\newlabel{sec:ROStopic}{{2.4}{3}}
\@writefile{lof}{\contentsline {figure}{\numberline {2}{\ignorespaces Blue boxes denote ROS nodes the orange box is a ardrone platform. Gray boxes present both ROS topic name and data structure. Generally a prefix ``/" stands for ROS topic.}}{4}}
\newlabel{ROSnode}{{2}{4}}
\@writefile{lof}{\contentsline {figure}{\numberline {3}{\ignorespaces Blue denotes ground truth velocity obtained from VICON and red is AR.Drone estimated lateral x and y velocity respectively.}}{4}}
\newlabel{velocity}{{3}{4}}
\@writefile{toc}{\contentsline {section}{\numberline {3}VICON comparison}{4}}
\newlabel{sec:VICON}{{3}{4}}
\@writefile{lof}{\contentsline {figure}{\numberline {4}{\ignorespaces Blue denotes ground truth angles obtained from VICON and red is AR.Drone estimated angles, roll, pitch and yaw respectively.}}{5}}
\newlabel{angles}{{4}{5}}
\@writefile{toc}{\contentsline {section}{\numberline {4}Software building instruction}{5}}
\newlabel{sec:SOFT}{{4}{5}}
\@writefile{toc}{\contentsline {subsection}{\numberline {4.1}Building ardrone\_autonomy package}{5}}
\@writefile{toc}{\contentsline {subsection}{\numberline {4.2}Running ardrone\_autonomy driver}{6}}
\@writefile{toc}{\contentsline {subsection}{\numberline {4.3}Building ethzasl\_ptam package}{6}}
\@writefile{lof}{\contentsline {figure}{\numberline {5}{\ignorespaces Plotting all data using rxplot tool.}}{7}}
\newlabel{rxplot}{{5}{7}}
\@writefile{toc}{\contentsline {subsection}{\numberline {4.4}Running ethzasl\_ptam package}{7}}
\@writefile{lof}{\contentsline {figure}{\numberline {6}{\ignorespaces PTAM}}{9}}
\@writefile{lof}{\contentsline {subfigure}{\numberline{(a)}{\ignorespaces {Image overlaying window with tracking features and the reference frame.}}}{9}}
\@writefile{lof}{\contentsline {subfigure}{\numberline{(b)}{\ignorespaces {3D Map and 6 degree of freedom camera position estimation visualisation view}}}{9}}
\newlabel{ptam}{{6}{9}}
\@writefile{toc}{\contentsline {subsection}{\numberline {4.5}Building ardrone\_pose\_estimation package}{10}}
\@writefile{toc}{\contentsline {subsection}{\numberline {4.6}Running ardrone\_pose\_estimation package}{10}}
\@writefile{lof}{\contentsline {figure}{\numberline {7}{\ignorespaces Position estimation visualisation using rviz.}}{11}}
\newlabel{pose_estimation}{{7}{11}}
\@writefile{toc}{\contentsline {section}{\numberline {5}Kalman Filter for states estimation}{12}}
\@writefile{toc}{\contentsline {subsection}{\numberline {5.1}States}{12}}
\@writefile{toc}{\contentsline {subsection}{\numberline {5.2}Process model}{12}}
\@writefile{toc}{\contentsline {subsection}{\numberline {5.3}Measurement model}{12}}
\newlabel{eq:line_model}{{4}{12}}
\@writefile{toc}{\contentsline {subsection}{\numberline {5.4}Prediction}{13}}
\@writefile{toc}{\contentsline {subsection}{\numberline {5.5}Update}{13}}
\@writefile{toc}{\contentsline {section}{\numberline {6}Scale Estimation}{13}}
\newlabel{sec:scale_estimation}{{6}{13}}
\@writefile{toc}{\contentsline {subsection}{\numberline {6.1}Scale calibration}{13}}
\@writefile{toc}{\contentsline {subsection}{\numberline {6.2}Online scale estimation}{13}}
\@writefile{toc}{\contentsline {subsection}{\numberline {6.3}Experimental validation}{13}}
\@writefile{toc}{\contentsline {section}{\numberline {7}Control}{13}}
\newlabel{sec:control}{{7}{13}}
\@writefile{toc}{\contentsline {subsection}{\numberline {7.1}System Identification}{13}}
\@writefile{toc}{\contentsline {subsection}{\numberline {7.2}Controller design}{14}}
\@writefile{toc}{\contentsline {subsection}{\numberline {7.3}Performance evaluation}{14}}
\@writefile{toc}{\contentsline {section}{\numberline {8}Experimental results}{14}}
\newlabel{sec:experiments}{{8}{14}}
